6.694941489471024632e+00
1.255578764649865597e+01
1.168999588921274757e+01
1.129316600726901498e+01
1.087535050923677105e+01
1.090264039667782470e+01
1.087428766091135657e+01
1.082634985369444713e+01
1.087677229264090073e+01
1.095040313581067970e+01
1.087537235482062847e+01
1.094820987966739523e+01
1.100282383884415971e+01
1.092705243188067143e+01
1.102820102406878355e+01
1.108638289296947654e+01
1.112784894602227581e+01
1.110415336505204742e+01
1.114082319998451176e+01
1.116816679115007105e+01
1.132434784725754717e+01
1.136891395045436859e+01
1.106882946080835417e+01
1.127591993033173168e+01
1.125907830010003252e+01
1.136114956478885851e+01
1.144280218719134012e+01
1.141012888042889628e+01
1.147553061359837123e+01
1.130704199837698454e+01
1.134828615693466780e+01
1.134120070368773270e+01
1.146355933488166734e+01
1.139438681124679142e+01
1.141510653826004784e+01
1.143011870199401514e+01
1.140278876431754362e+01
1.143633801830033647e+01
1.158591301036046595e+01
1.145705774531343657e+01
1.135391038336200609e+01
1.155972551580264707e+01
1.149337582588996831e+01
1.139305220789900375e+01
1.161806920383769182e+01
1.148973034411677396e+01
1.139776316756510788e+01
1.165400255941640850e+01
1.156751781526743628e+01
1.168648714461090776e+01
1.154941338894134439e+01
1.164661086345499008e+01
1.171783960265271674e+01
1.171960181306768867e+01
1.160399498428360232e+01
1.163553353434137172e+01
1.163968459978575787e+01
1.163280091477908051e+01
1.173276145107963231e+01
1.177238448528694725e+01
1.182226634717245517e+01
1.179957920284526196e+01
1.190830912279564302e+01
1.199914396993205834e+01
1.205418088387839859e+01
1.206790870934070803e+01
1.201097183643651967e+01
1.223327472087519574e+01
1.205031259737990190e+01
1.201956109515714743e+01
1.217297645991881616e+01
1.215731732304609203e+01
1.223033295007807197e+01
1.209176863787132383e+01
1.235415806721244003e+01
1.223752055165470765e+01
1.231740742384884868e+01
1.217765738190489522e+01
1.228426656091455982e+01
1.228974282396547224e+01
1.219693267083781230e+01
1.234562797360815800e+01
1.222586896687264790e+01
1.220287284913013259e+01
1.228034497523342772e+01
1.228443293121676838e+01
1.216444899587955497e+01
1.232606019658233620e+01
1.215696668119835167e+01
1.225781287387078322e+01
1.215502343562064347e+01
1.211843086933021141e+01
1.220439941042571164e+01
1.201484062861914737e+01
1.207731110923305629e+01
1.202858382689931638e+01
1.175803567888026713e+01
1.173415218543616234e+01
1.182856647191099420e+01
1.181647332315838383e+01
1.176995972663207901e+01
1.179277197738102778e+01
1.172463620873235257e+01
1.172515574930723936e+01
1.162547728399075631e+01
1.153899567509171931e+01
1.156021633347507915e+01
1.147020271846988315e+01
1.138340333723235176e+01
1.145743963848203961e+01
1.131485199681068998e+01
1.120114795882219560e+01
1.124712826014956768e+01
1.113114722460922756e+01
1.123519349187640870e+01
1.121672588271663606e+01
1.084829566409205626e+01
1.093448427921947008e+01
1.083740331448386840e+01
1.091241467717708424e+01
1.072956734413206092e+01
1.069580570253132734e+01
1.068287493746393224e+01
1.060478405542839120e+01
1.053835922075744058e+01
1.047981073037072797e+01
1.034167048544533074e+01
1.026763833081011867e+01
1.038468312491049339e+01
1.003088155866437425e+01
1.006983729119652438e+01
1.009054973634760977e+01
9.908680296586194203e+00
9.893402243780087701e+00
9.680927343562942156e+00
9.675527641194882733e+00
9.617273863913220922e+00
9.451053649602839002e+00
9.341137999913165402e+00
9.326129173695566266e+00
9.277130540898163247e+00
9.207316100962612992e+00
9.020341065110315526e+00
8.908955794237032322e+00
8.817911290181189798e+00
8.619211850937764652e+00
8.588131350179798673e+00
8.650838491284545739e+00
8.349205190211398175e+00
8.410012675768552270e+00
8.120773911590536187e+00
8.068629919286040675e+00
8.056572775292684341e+00
7.947908189812994628e+00
7.799829417963772826e+00
7.759095697646052336e+00
7.641004439407088178e+00
7.529464125570724420e+00
7.599509157774389401e+00
7.349611457954972948e+00
7.186613163820024575e+00
7.270277804937464339e+00
7.020642049844472155e+00
6.955583777800040224e+00
6.982231142123493939e+00
6.936030463360559395e+00
6.759361991833769068e+00
6.592524336375178429e+00
6.552091296245220242e+00
6.499148119674003077e+00
6.246759214219892442e+00
6.254856340490107414e+00
6.215110424878456108e+00
6.075347841950670791e+00
5.967266311060204664e+00
5.886582783016592657e+00
5.571644408979392615e+00
5.822095530253053042e+00
5.639026201581377684e+00
5.464072911785627262e+00
5.318638972607264037e+00
5.305686260823141431e+00
5.207742901216801279e+00
5.062789868293545048e+00
4.943635458312327202e+00
4.819761593163316427e+00
4.633463871540512535e+00
4.598456829398680057e+00
4.474309591041713219e+00
4.505566676931707981e+00
4.355019050713291762e+00
4.231809655400933678e+00
4.088550363172403834e+00
4.084843187848613333e+00
3.871856534613206335e+00
3.788490550941477686e+00
3.767574213674902417e+00
3.623098344932591530e+00
3.483625923950388170e+00
3.474988625171972600e+00
3.393847553516347482e+00
3.109911299091456804e+00
3.101673693582026381e+00
3.126190708951542163e+00
3.034814071115834899e+00
3.048989933314232736e+00
2.733262589842006207e+00
2.686215192437843680e+00
2.689265483192426309e+00
2.632841172410190111e+00
2.610456124188500482e+00
2.462271360796114195e+00
2.403400648048887867e+00
2.255655830445125964e+00
2.305411877950639621e+00
2.197777675838162637e+00
2.344899489763808909e+00
2.156175896982752249e+00
2.226011980226567655e+00
2.062504866040795637e+00
2.102932242499912618e+00
2.117993154248292598e+00
1.941418537824245227e+00
2.056536268261013323e+00
1.885743146239435175e+00
1.821690479000437568e+00
1.942779032225780744e+00
1.779913429790811463e+00
1.870550958713249168e+00
1.860664517323151967e+00
1.755628928295175140e+00
1.786538608725360078e+00
1.723255796034262044e+00
1.699255792811971588e+00
1.547673737749080569e+00
1.631543788035959786e+00
1.685740051561391173e+00
1.698215498028515569e+00
1.657606075040257476e+00
1.714832907614280533e+00
1.598021234210916575e+00
1.619210641273571838e+00
1.601995613386678619e+00
1.588873901733622196e+00
1.647105934569113916e+00
1.676012395196732729e+00
1.514809888955038986e+00
1.634685304330978139e+00
1.597771931599723194e+00
1.644544944429600974e+00
1.639605516370913563e+00
1.578350600898167144e+00
1.613814680970206306e+00
1.503241034211583838e+00
1.446592199373095688e+00
1.572113282210670260e+00
1.690950020990288127e+00
1.557488978723209794e+00
1.530772638989862378e+00
1.475908871516998344e+00
1.674126494278538546e+00
1.484079220951830980e+00
1.584204003675400596e+00
1.420421999229734222e+00
1.607612254536787466e+00
1.713502349749655984e+00
1.445565962623858614e+00
1.611481956954041062e+00
1.598022346714149222e+00
1.573503915426806898e+00
1.494897437164041332e+00
1.546614226944076576e+00
1.551809329243051483e+00
1.621917167498376555e+00
1.583106161959395797e+00
1.401250476820401047e+00
1.646196409873274646e+00
1.516104947744700837e+00
1.492775583712947496e+00
1.696646459208690949e+00
1.511903617229230390e+00
1.520177025222862355e+00
1.600694385237615869e+00
1.593142488328119111e+00
1.546267832850280577e+00
1.621843438654208658e+00
1.626318546926885045e+00
1.583397234131064479e+00
1.627418815927821116e+00
1.673156388543481921e+00
1.723263179033098780e+00
1.679683363488780445e+00
1.666444535236650815e+00
1.617160999612848871e+00
1.717608712660467774e+00
1.604039389102208890e+00
1.674000275350302047e+00
1.639808599387356569e+00
1.600487054465442149e+00
1.654415001630466620e+00
1.618932716901965385e+00
1.654295154334118223e+00
1.808697615835831662e+00
1.572318893651665661e+00
1.579641007385877538e+00
1.639337806833717881e+00
1.762704975804413987e+00
1.590009568672227758e+00
1.577841174019551040e+00
1.607729573410215274e+00
1.578291132364044280e+00
1.598172939650716717e+00
1.613030262695180239e+00
1.541940991366145486e+00
1.586903652587521529e+00
1.612974030546736159e+00
1.620066259968837130e+00
1.504430708289142382e+00
1.606109966110535359e+00
1.663884253057795970e+00
1.745143149272924354e+00
1.687631919564089422e+00
1.696056628450290926e+00
1.600984142634340746e+00
1.656384138272172457e+00
1.502653833014950813e+00
1.623294046095276943e+00
1.748407951526572912e+00
1.584519348718108844e+00
1.698020101418749261e+00
1.740410849709808083e+00
1.692237191102102356e+00
1.801577472617858389e+00
1.683931520416082073e+00
1.581006356366278398e+00
1.753901407861167661e+00
1.822351813589867309e+00
1.677386340822085264e+00
1.712566023757682521e+00
1.846260389000240698e+00
1.786604347750662125e+00
1.767406833139344435e+00
1.585302957900615484e+00
1.650087755602905659e+00
1.659085101962108455e+00
1.743369914926981235e+00
1.691841745582094436e+00
1.863573317468698809e+00
1.882333313582222445e+00
1.881034108176604880e+00
1.760067728396879305e+00
1.790357439252354910e+00
1.878171527621695036e+00
1.649899135168532371e+00
1.776774037372571335e+00
1.824322669557782328e+00
1.776111893682860376e+00
1.826303133535424728e+00
1.874525742437716413e+00
1.835063212589734816e+00
1.831371106673635563e+00
1.697690799474845136e+00
1.798543262638533591e+00
1.810955195090388825e+00
1.759802243871736449e+00
1.807037452616279571e+00
1.791119607391403301e+00
1.859327385554770729e+00
1.722964218177682749e+00
1.900625450114433290e+00
1.782682357522607175e+00
1.718480108720122246e+00
1.991031476527999944e+00
1.934824104527589128e+00
1.906621354873009544e+00
1.903486412478873735e+00
1.922254095001172391e+00
1.996287665552733515e+00
1.808464899689464778e+00
1.891293239271101934e+00
1.859036313380617145e+00
1.721142741503015383e+00
1.898317403517080670e+00
1.847844396087510388e+00
2.008128073039865846e+00
1.800456571670949524e+00
1.806596090915651320e+00
1.844551174351217071e+00
1.982095823712954674e+00
1.883462710033606768e+00
1.915023611352141719e+00
1.872176027410736410e+00
1.935739798576228132e+00
1.884628111237486747e+00
1.845695842480371551e+00
1.768822851734408008e+00
1.841835343528097857e+00
1.952617939250841150e+00
1.889870343357995530e+00
1.921138352042523589e+00
1.930295393670095727e+00
1.987524956939995979e+00
1.833311520419187213e+00
1.986757023991416515e+00
1.941194519454842116e+00
1.929676132052708271e+00
1.935845992385275993e+00
1.946391745626326442e+00
1.890393727139127122e+00
1.990921844066065427e+00
2.014020009005095257e+00
2.056987440244711252e+00
1.938296439822873918e+00
1.939646719396982855e+00
1.825074420591869861e+00
1.940678012990354695e+00
2.024196612333247547e+00
1.788427341481458877e+00
1.831245595705049301e+00
1.986684508791420001e+00
1.916790170661770931e+00
2.010719808813854925e+00
2.006930004597996753e+00
1.847270140420934403e+00
1.869586112101182751e+00
1.817901281602046781e+00
1.911837898204419073e+00
1.879684233153141149e+00
1.827081483594942490e+00
1.872476100775517516e+00
1.832354259077980885e+00
2.064832634342898210e+00
1.927435038127935929e+00
1.936717186172441707e+00
1.815127802708619953e+00
1.804610064405624881e+00
1.814222121219730255e+00
1.832438809578145200e+00
1.890230087531251213e+00
1.883175177648236387e+00
1.874087414844298527e+00
1.896862952874340813e+00
1.954458530811316264e+00
1.879979755351012694e+00
1.868756485603866535e+00
1.748319052134239326e+00
2.016949643364833733e+00
1.863327554657389307e+00
1.848962465200940430e+00
2.076788135695907478e+00
1.927006318545563923e+00
2.015732864582369110e+00
1.795797596407723962e+00
1.929708799292870758e+00
1.841855166369285923e+00
2.010854320973146869e+00
1.875674961724697942e+00
1.920887228965263871e+00
2.043915285705958595e+00
1.959188605359351243e+00
1.800975909970392363e+00
1.949417358964271152e+00
1.959557957545437601e+00
1.890517215367916393e+00
1.916963114864777440e+00
1.812518367969833122e+00
1.918145001396967864e+00
1.936972759270933153e+00
2.000020731936866802e+00
1.880343241595476389e+00
1.935556639540672474e+00
1.956182208044817461e+00
1.860006520252190487e+00
1.866210463740106462e+00
1.844961588142162823e+00
1.888107728400217677e+00
2.088389354267257580e+00
2.012128747826075426e+00
1.850426523848669236e+00
1.840671661649108781e+00
1.768316155560209602e+00
1.930354558791874453e+00
1.826307785838696240e+00
1.803819375638099132e+00
1.874891049136445442e+00
1.837960584257781527e+00
1.907965161677781962e+00
1.845335794899429560e+00
1.850524323294027607e+00
1.792884447370550527e+00
1.934162061979517677e+00
1.893241036010832934e+00
1.863113649979594388e+00
1.742966176177006332e+00
1.914923485765046118e+00
1.852850877956848885e+00
1.973412204203504494e+00
2.009509199386908307e+00
1.852439048249549192e+00
1.863901304637503253e+00
1.833475160018911199e+00
1.991924010216286511e+00
1.932151762597521971e+00
1.788889335118432511e+00
2.035412499087843941e+00
1.843154068367839127e+00
1.840416897641736771e+00
1.767939926062912503e+00
1.930446290017377997e+00
1.892584050312486443e+00
1.968757577827401128e+00
1.850387788393309307e+00
1.823618958577214455e+00
1.860791140798695453e+00
2.063674110453256105e+00
1.933274079457210748e+00
1.788185017320706338e+00
1.869687653611850520e+00
1.836928279295366728e+00
2.029355507601335873e+00
1.938785538172518752e+00
1.877768294554766682e+00
1.809658214697833944e+00
1.998852195481185312e+00
1.773296847501137696e+00
2.023932644864621544e+00
1.880475225328430700e+00
1.922549718339751301e+00
1.862271988188475724e+00
1.982854957744714319e+00
1.929303341214588796e+00
2.045920932788953372e+00
1.868655247508105299e+00
1.946417535557763534e+00
1.879531111793263598e+00
1.860724896087396107e+00
1.883300587482946264e+00
1.995659706161331926e+00
1.974166281387246924e+00
1.923236337171748023e+00
1.978230065637303525e+00
2.027405890396006605e+00
1.871564047655127183e+00
1.871965055709769121e+00
1.954988994173274319e+00
1.989085500256275729e+00
1.934210809993774038e+00
1.967807699487904349e+00
1.923139953645846001e+00
2.018452943160830682e+00
1.838932510457661706e+00
2.027890134168569780e+00
2.097718733272374347e+00
1.977683521498069252e+00
1.925300239142983427e+00
2.077801224637785715e+00
2.003519463981522364e+00
2.106995824472432499e+00
1.923482504534479665e+00
1.918661608996885315e+00
2.120864331447144480e+00
1.893964873243458857e+00
2.046831165441958866e+00
2.201005057414734623e+00
2.013558318775417355e+00
1.944197478114004785e+00
2.182850467153373053e+00
2.078405012296139276e+00
2.068836646650370703e+00
2.052368919767092237e+00
2.066267565551979324e+00
1.962965767458040744e+00
2.012202577804198533e+00
2.121310143172112639e+00
1.921040046915360344e+00
2.020463343680506618e+00
1.999424731826054735e+00
2.153969594168710699e+00
1.876657001620533727e+00
2.032389717582524291e+00
1.927614353957553428e+00
1.986408202610207452e+00
2.035005422816682952e+00
2.089895587033638868e+00
2.085788313892005696e+00
2.045210951321163595e+00
1.998440568051421451e+00
2.017191057295075307e+00
2.037244494003987327e+00
1.996338031761341947e+00
2.013373440406275527e+00
2.036990134549356846e+00
1.950799496683385703e+00
2.070123108796711797e+00
2.000447024228176218e+00
2.046415391390651095e+00
1.937706406794312830e+00
1.993309586584483428e+00
2.037587955123131067e+00
1.973038401995329538e+00
2.144795763808324818e+00
2.039426726220955555e+00
2.072640003219263782e+00
2.090664227941790188e+00
2.117432855479806530e+00
2.138441631932389342e+00
2.195867097498285236e+00
2.168504088034414856e+00
2.176509381942147048e+00
2.167217322475496033e+00
2.064242601315813275e+00
2.113907928966732186e+00
2.108787870292304856e+00
2.146949070857814057e+00
2.152526572002537719e+00
2.208410912553952166e+00
2.208814651303307119e+00
2.142088833034893280e+00
2.356874915092969314e+00
2.155262731356335948e+00
2.186698323986769221e+00
2.206758536878060450e+00
2.275232001834478268e+00
2.192510260613155459e+00
2.241589802983481317e+00
2.233567113517939795e+00
2.284970580990639544e+00
2.362830567339823329e+00
2.222135198221423913e+00
2.179715929307554312e+00
2.173159220094185606e+00
2.380255151016843929e+00
2.167922145959141123e+00
2.231510796818184428e+00
2.178289291329217114e+00
2.131878854505065313e+00
2.268775620492805345e+00
2.171013700593247719e+00
2.250426644989714120e+00
2.203775502200483682e+00
2.212288200243619052e+00
2.185992185722977599e+00
2.207045563573318603e+00
2.395386049542997942e+00
2.303007751240737644e+00
2.424835817933411519e+00
2.314130794255730983e+00
2.430317238966906768e+00
2.164121520084338446e+00
2.488730003551084202e+00
2.224941040939097725e+00
2.496435830917093313e+00
2.386840380850927534e+00
2.338381617145577351e+00
2.416700259617537760e+00
2.346564709834017215e+00
2.463366876362696800e+00
2.450696943516859960e+00
2.479525225280706735e+00
2.388446233521976936e+00
2.479727600340527083e+00
2.367147295130098250e+00
2.387606493333208402e+00
2.386483569648211400e+00
2.521435067318677170e+00
2.502489282609692722e+00
2.353077424462125755e+00
2.366649600141791598e+00
2.522854929119216383e+00
2.425352122118656251e+00
2.497782570696829296e+00
2.271789400803382541e+00
2.519257285131482504e+00
2.528364567367216154e+00
2.413877729296038055e+00
2.410274320497764577e+00
2.354936726362886645e+00
2.507115084950640949e+00
2.522855839355469865e+00
2.596280868810597831e+00
2.538579299334268846e+00
2.378547352286112471e+00
2.438121169189220616e+00
2.444514441066580890e+00
2.439102703399058214e+00
2.590401069277704416e+00
2.506430589995733538e+00
2.366420120376676373e+00
2.608330629803802037e+00
2.475344728981988762e+00
2.552187075223627311e+00
2.511771026108442051e+00
2.602790650467935674e+00
2.575618587589880271e+00
2.491793239840303542e+00
2.688656537550314862e+00
2.642322256856193263e+00
2.519842261313501197e+00
2.740561442079504140e+00
2.796068541758756076e+00
2.773737905221696387e+00
2.638574525616570021e+00
2.709530902978802835e+00
2.961979782652410798e+00
3.175621196578460648e+00
2.921294506942660796e+00
2.786343919508372124e+00
2.863045786509942126e+00
2.802107126314991703e+00
2.860139717060581788e+00
2.769429774076604289e+00
2.764053940024829181e+00
2.668369676726300099e+00
2.792444096469918868e+00
2.993184479596720848e+00
2.958625676466730248e+00
2.970235491674336537e+00
2.843701926721668549e+00
2.916161300465067718e+00
3.010504892200297711e+00
3.093764985472764018e+00
2.972756836127671498e+00
2.881481537528432391e+00
3.093971709421024840e+00
3.047582713636373342e+00
3.025080447673270889e+00
3.016574930354543049e+00
2.944890366866971476e+00
3.091109533411092514e+00
2.961528509528782216e+00
3.188386097033070854e+00
3.157909788481387814e+00
3.079449554264185096e+00
3.101355112151390259e+00
3.035316721816030849e+00
3.193244716658610649e+00
3.103009712842440315e+00
3.249105188885050843e+00
3.285887386974240876e+00
3.317838879246649775e+00
3.357429549622888310e+00
3.400550102224787707e+00
3.426856230442082207e+00
3.370439201519916494e+00
3.560369661656712204e+00
3.443779478197267707e+00
3.571801374683299279e+00
3.713948463745301964e+00
3.644746913802391575e+00
3.863964918646535907e+00
3.764892769415363993e+00
3.711885269735269333e+00
3.766933207613512025e+00
3.760300443405077964e+00
3.795108953700635723e+00
3.956295581440490317e+00
3.924613214623414059e+00
3.899930941460440614e+00
4.047838994126634837e+00
4.046793237944982913e+00
4.041221097052702049e+00
4.081190828759868161e+00
4.293232357097046759e+00
4.190102592971255646e+00
4.268034285428616847e+00
4.273176290820852152e+00
4.370906858258686967e+00
4.371766421291827243e+00
4.703858331946657145e+00
4.551025111539819257e+00
4.523812391600176674e+00
4.581120437151235514e+00
4.729225302340677395e+00
4.752835624848841256e+00
4.853516357456489239e+00
4.957193474814889811e+00
5.066052243256284449e+00
5.173694738601212428e+00
5.237634739267419626e+00
5.329500374308799415e+00
5.583932044113199211e+00
5.752774133011153701e+00
5.941365539782733407e+00
6.119205177318664646e+00
6.164141037243754617e+00
6.487351807903285028e+00
6.908371931695563184e+00
6.985435666746544925e+00
7.288738132231886269e+00
7.657147415507935762e+00
8.106238102947173729e+00
8.465900454969908395e+00
9.315119302938672519e+00
9.870803189746416351e+00
1.055884056795597559e+01
1.171907306903597501e+01
1.311134784280264043e+01
1.476714427419397602e+01
1.716381314495459520e+01
2.077442360358424622e+01
2.664122035601248584e+01
3.975144345467158757e+01
8.113228042444848143e+01
1.739658009432153278e+02
2.892088894305687177e+02
3.619990170462695573e+02
3.781970823476656278e+02
3.740964259913441765e+02
3.730410137587034001e+02
3.730543436102169039e+02
3.730957666800634911e+02
3.739225797467304915e+02
3.746484159517700618e+02
3.756718109531214509e+02
3.763173408709889713e+02
3.766784047790299610e+02
3.775791212529742893e+02
3.779549958599241677e+02
3.779540254507774648e+02
3.785416013613156565e+02
3.791280546515867513e+02
3.794862916804151496e+02
3.799383490183428194e+02
3.803845298942636077e+02
3.802864633498380158e+02
3.802051228360966775e+02
3.805847015842547307e+02
3.808764662440433426e+02
3.810455641083191836e+02
3.811815143334843015e+02
3.811925869091632535e+02
3.820129569445610969e+02
3.819106033054779346e+02
3.817149865208207302e+02
3.824410820410310521e+02
3.826529938106461941e+02
3.831478406799005825e+02
3.830980886778714876e+02
3.831447828038690773e+02
3.832191431479450898e+02
3.838174481730405319e+02
3.838609398982929974e+02
3.836045776250356312e+02
3.838858502353061795e+02
3.838405563505373266e+02
3.840088953841900548e+02
3.841380192690065201e+02
3.839623008780977784e+02
3.841484117997493968e+02
3.838280451015847348e+02
3.841587070367447723e+02
3.843913637164735633e+02
3.843319487857382910e+02
3.842731972123316382e+02
3.839756049396886510e+02
3.841704092911409134e+02
3.845341870072623465e+02
3.852570487742692080e+02
3.855171674765471721e+02
3.855203798898564287e+02
3.857543138282727568e+02
3.861748351445685898e+02
3.859416689368281936e+02
3.856411238694568624e+02
3.854449237268035517e+02
3.855661067419571282e+02
3.856345332793640637e+02
3.858804996843597337e+02
3.860077113726462130e+02
3.855246444309724438e+02
3.854309634886039362e+02
3.852898279714295313e+02
3.851775554259889986e+02
3.847598055658499447e+02
3.844126384831332075e+02
3.853609841954299782e+02
3.852990864534284583e+02
3.850012948398311323e+02
3.847383298400449689e+02
3.846152302794777711e+02
3.850718682115207798e+02
3.849612020244435371e+02
3.850621708962482899e+02
3.847796289159770708e+02
3.846854728321609969e+02
3.845523918625943338e+02
3.843284637071827774e+02
3.844113374572606858e+02
3.847762197912801412e+02
3.843984965018161120e+02
3.841453567555589075e+02
3.845567770601046504e+02
3.843567224867178993e+02
3.836422780455994825e+02
3.835661655036662978e+02
3.840398767707229126e+02
3.840253610883337956e+02
3.837855545311148262e+02
3.838527041132498994e+02
3.842417095341698996e+02
3.841343218028308115e+02
3.837954509850667364e+02
3.837318759876935701e+02
3.841421855049963483e+02
3.842924656239513865e+02
3.838303574970714749e+02
3.836016401019873001e+02
3.835560218709827609e+02
3.837767562222908282e+02
3.837314817558176969e+02
3.835650113286657756e+02
3.838127684646995021e+02
3.838576780290148918e+02
3.834676394940266846e+02
3.833475237772319701e+02
3.830269675484004210e+02
3.831003033750529880e+02
3.826971108657266996e+02
3.835431964906287590e+02
3.836396590028452920e+02
3.833102943514931553e+02
3.832197958858926654e+02
3.832777165180244197e+02
3.832489802708950606e+02
3.836536698095234783e+02
3.833723344943407483e+02
3.835220911283811347e+02
3.840524334301710496e+02
3.839626580938459028e+02
3.842007811252045144e+02
3.837357636924892290e+02
3.842180710955839800e+02
3.843786762869348195e+02
3.845571992057836610e+02
3.844416888616627830e+02
3.844407473776868187e+02
3.847762060366513879e+02
3.843967507767242182e+02
3.842909092272494718e+02
3.842587628440613798e+02
3.844065261697319329e+02
3.846774477154108354e+02
3.843421004082396166e+02
3.848332275611942919e+02
3.852122653277447739e+02
3.851100613713661005e+02
3.853902172273080282e+02
3.854472517985187778e+02
3.854333623561954596e+02
3.853188024972364474e+02
3.856420317759606178e+02
3.859957980454078665e+02
3.861217740423004443e+02
3.860122631427303759e+02
3.856118413816036536e+02
3.855577640551458671e+02
3.856513182728990046e+02
3.851842344097856881e+02
3.851676236752422824e+02
3.846766059524817933e+02
3.843873115629775725e+02
3.845910155624837898e+02
3.843945599478647637e+02
3.848368221710759371e+02
3.845279301691444402e+02
3.836980300990026080e+02
3.837363668733320878e+02
3.835329757915824302e+02
3.835466454632887690e+02
3.832384295619451677e+02
3.833496518000376909e+02
3.835707660217715329e+02
3.833044494442193013e+02
3.829627508370109013e+02
3.831340998077708377e+02
3.839427036702142004e+02
3.838732455357989011e+02
3.835525528732053431e+02
3.835064567700599696e+02
3.832611259097305947e+02
3.834696778083506956e+02
3.829324456521997035e+02
3.826563980807652570e+02
3.831703265616711747e+02
3.838347319740626631e+02
3.832689472355100406e+02
3.837183802715605339e+02
3.842633225028317838e+02
3.845902700819431743e+02
3.848321608696613794e+02
3.849259931129193433e+02
3.851570299830784165e+02
3.852107451380775274e+02
3.847329371161246740e+02
3.847053768895846133e+02
3.845885149511113354e+02
3.846442705443060390e+02
3.842803728797479721e+02
3.840643985395284403e+02
3.838990438553349804e+02
3.835639597065377870e+02
3.832185135703589935e+02
3.830280832913585414e+02
3.828981044958060238e+02
3.831060310645882510e+02
3.831600036131575280e+02
3.833674506916049722e+02
3.831555085809050070e+02
3.830784338219223741e+02
3.828706532949157122e+02
3.833428333483687425e+02
3.837378373036131620e+02
3.830167502880056531e+02
3.828777286344575828e+02
3.830590269538037091e+02
3.834530872000604518e+02
3.833868482551222883e+02
3.834641711030729994e+02
3.835472006040691326e+02
3.839890140825860385e+02
3.839861369383039573e+02
3.847941044469914686e+02
3.852054411112721937e+02
3.849383543757611505e+02
3.840708936563283373e+02
3.841225940619220296e+02
3.845585768934708426e+02
3.854514805371519515e+02
3.853729037931548191e+02
3.853770940997411003e+02
3.855076124609803401e+02
3.861297710429782910e+02
3.856839970410551359e+02
3.852827994582935389e+02
3.857424112215566652e+02
3.859852335818281972e+02
3.862746713835476271e+02
3.858763793645514966e+02
3.855031243060429915e+02
3.855081107627875667e+02
3.852989863278345410e+02
3.850818296965422860e+02
3.853213758260856139e+02
3.844005579765000107e+02
3.854426365144199735e+02
3.841254783869226230e+02
3.848022415223591679e+02
3.849139531622092250e+02
3.848108862041368070e+02
3.844178921437292615e+02
3.846274852473682699e+02
3.846136519360554757e+02
3.845086531608841938e+02
3.847694897333155382e+02
3.842545047757094494e+02
3.840467113031670578e+02
3.837236370674035015e+02
3.835307492613781051e+02
3.839451364186888895e+02
3.845635217829302519e+02
3.845163357267505830e+02
3.838951637358087510e+02
3.838014936150982521e+02
3.833647737985087360e+02
3.832255023366693081e+02
3.824259744040049895e+02
3.824438627006464912e+02
3.820195431857637800e+02
3.815202981734649939e+02
3.816923851406362473e+02
3.822644423935388431e+02
3.825589569673126675e+02
3.829319449231022077e+02
3.827066478789156463e+02
3.827845428586591652e+02
3.832840099677206922e+02
3.836282610695671451e+02
3.835626187315666016e+02
3.836522109088564321e+02
3.841264323107423593e+02
3.844322315443999400e+02
3.846230895316119813e+02
3.847907079644153896e+02
3.853508367195404389e+02
3.853556165534733964e+02
3.852645809494713376e+02
3.853713163474076282e+02
3.861729606721259529e+02
3.856615313866735733e+02
3.856451639876558488e+02
3.859080275470692527e+02
3.856764272429004450e+02
3.856265513480974505e+02
3.854064629585614057e+02
3.858262820809343339e+02
3.858181282168320081e+02
3.858646479827100393e+02
3.854521732241983614e+02
3.855379714506523783e+02
3.861008737858095401e+02
3.859331423830213339e+02
3.854414960940468404e+02
3.853922031526846581e+02
3.851681585886284438e+02
3.854490093566358837e+02
3.850982955018170060e+02
3.855127375765036959e+02
3.853324366698676613e+02
3.847511505681017070e+02
3.842975005253036329e+02
3.845732397301425181e+02
3.847298690252647475e+02
3.848085293083891543e+02
3.847760576687294929e+02
3.846963443475615350e+02
3.840760174570684171e+02
3.840884529544386510e+02
3.836487150086481961e+02
3.835634588763083457e+02
3.836221604880503833e+02
3.831805964132847748e+02
3.830453844879414191e+02
3.827427048238610041e+02
3.833110877709545434e+02
3.838177694851669912e+02
3.838470106080051778e+02
3.835035468574013180e+02
3.831285161372660468e+02
3.830864446783640460e+02
3.828844102478180957e+02
3.835790234501234863e+02
3.839165995125123345e+02
3.842961374013352156e+02
3.846600848252828087e+02
3.849767843983634634e+02
3.845117440075635500e+02
3.843577176744171311e+02
3.847699503110388264e+02
3.849207920435436563e+02
3.846543191082461135e+02
3.842819991620897895e+02
3.842831231982736995e+02
3.842710562439964406e+02
3.845265319506538049e+02
3.840501062686865907e+02
3.834096789128001888e+02
3.835624678352210708e+02
3.841982406658722766e+02
3.846951900714194608e+02
3.848635067538056092e+02
3.848726392191474588e+02
3.850840310436412324e+02
3.848924727841067579e+02
3.847132819567650586e+02
3.851292629314538658e+02
3.856403229658621399e+02
3.856872024759095439e+02
3.860404693310468360e+02
3.858627555078898013e+02
3.860914020059602194e+02
3.861826048904958952e+02
3.864200607213220451e+02
3.863730263705842845e+02
3.866074708483822064e+02
3.858914250046188386e+02
3.854055980352679285e+02
3.854120968941351748e+02
3.855894927426857066e+02
3.857713549005900404e+02
3.856280342182228082e+02
3.855347399224647802e+02
3.855600220389459309e+02
3.860283849812060453e+02
3.861956811916507490e+02
3.865212649388374757e+02
3.868446884005277866e+02
3.865556257158009998e+02
3.865485846616815593e+02
3.867612091434603485e+02
3.871186242322039561e+02
3.866095931063828175e+02
3.868465957424818953e+02
3.874882123679001893e+02
3.874946676367363807e+02
3.880991106640209978e+02
3.883385538361384874e+02
3.882619653436675549e+02
3.882564295109481805e+02
3.884155942085577067e+02
3.881175060613894061e+02
3.884532507356798874e+02
3.880411831545804944e+02
3.878496634282254831e+02
3.882085874804362788e+02
3.880468678609088329e+02
3.880991032810247816e+02
3.882669730391764347e+02
3.872028743551911703e+02
3.875089545473230714e+02
3.877754422486111707e+02
3.876450481846971456e+02
3.876289150188851522e+02
3.876566586067353910e+02
3.875670978830383433e+02
3.876067196024634995e+02
3.875515611218893923e+02
3.881677287548388335e+02
3.884088296628887633e+02
3.884771570860793872e+02
3.881197140835373034e+02
3.880794790695753704e+02
3.878267764372643569e+02
3.876973793815172371e+02
3.871501306207059656e+02
3.869169383196276613e+02
3.868474096927495793e+02
3.864055145967074623e+02
3.858269813418878584e+02
3.855054658289732288e+02
3.860524903691410827e+02
3.857077483484915774e+02
3.856496662006314864e+02
3.858150074336103330e+02
3.861704026149588458e+02
3.861301526327355305e+02
3.862003373350811444e+02
3.868760728178527302e+02
3.871375999534547532e+02
3.871558421283303346e+02
3.871813588825636430e+02
3.868512719110281068e+02
3.867973067454607303e+02
3.866996414113665423e+02
3.865041739048634213e+02
3.872004084337997369e+02
3.873953483087722702e+02
3.878095467445184568e+02
3.880466675085858128e+02
3.883536583379186595e+02
3.880968521745351723e+02
3.876473641199781923e+02
3.877256980341308576e+02
3.879928054015837802e+02
3.881798446594064558e+02
3.880324969055085944e+02
3.881567226261465748e+02
3.884067075060270895e+02
3.879037439910679836e+02
3.877619264062213915e+02
3.882331548620106787e+02
3.888898024626388406e+02
3.894772171608671556e+02
3.893059272540871802e+02
3.893616378413343568e+02
3.895947589419930068e+02
3.899116612946828582e+02
3.892249675210031796e+02
3.885270282274485112e+02
3.887034910875250944e+02
3.881824883795779328e+02
3.883359629094626939e+02
3.880054396330807549e+02
3.877962391431284459e+02
3.880212019296580479e+02
3.877442100424165119e+02
3.874529490446944919e+02
3.874507626658624986e+02
3.876712323417367543e+02
3.880499030822567761e+02
3.884486151230537985e+02
3.895135343312122700e+02
3.896248888564497861e+02
3.888999314304638801e+02
3.886881454752330001e+02
3.886131099408047476e+02
3.884670408615059500e+02
3.886350990378219308e+02
3.885821516134977855e+02
3.884167718473351556e+02
3.886939732903602476e+02
3.883521585779196243e+02
3.882210778951728116e+02
3.885547982120449433e+02
3.890520598273911332e+02
3.885461923668583495e+02
3.883386344422989396e+02
3.887902155262754036e+02
3.891471482928490673e+02
3.883323759859899837e+02
3.883919039878444437e+02
3.882914648714422015e+02
3.883628221557208349e+02
3.881341684769238896e+02
3.876195964615338880e+02
3.875932796127930828e+02
3.871822894437455034e+02
3.870024520478099817e+02
3.866340885795777922e+02
3.867132520190889977e+02
3.864939674661219442e+02
3.878976732449575593e+02
3.874663700206129988e+02
3.877917394585784905e+02
3.879003078628022081e+02
3.879625676751260244e+02
3.881044385591528112e+02
3.881494470354149939e+02
3.883117530470434531e+02
3.876860117893238566e+02
3.878911381790590553e+02
3.881797054949490189e+02
3.881939567041825967e+02
3.879931145772756622e+02
3.872887348820156603e+02
3.870609970995388380e+02
3.872700418385668399e+02
3.867998182796259812e+02
3.867793803201844298e+02
3.872643659311546571e+02
3.877529328019251693e+02
3.874725086296282939e+02
3.868543105710394912e+02
3.870051617092789797e+02
3.869689081540835787e+02
3.872922833734428991e+02
3.869474935150027477e+02
3.874812937906438037e+02
3.874878262269843390e+02
3.868402051001620521e+02
3.865856909026006178e+02
3.861871297581508315e+02
3.866043453117262629e+02
3.867270735985155738e+02
3.864258820636822520e+02
3.865670135353856267e+02
3.873260069875451563e+02
3.871264012599913826e+02
3.872626047321076612e+02
3.869850863258420191e+02
3.874410540232487392e+02
3.874995083551242487e+02
3.875220940590756413e+02
3.877902861204433407e+02
3.879672841973247728e+02
3.878070524036336906e+02
3.874294906299007835e+02
3.871122687855470872e+02
3.876898821997041864e+02
3.874778153871307609e+02
3.869433572155551815e+02
3.874750825652957360e+02
3.877639280078249726e+02
3.871406226338246483e+02
3.870647074101068483e+02
3.867071864309610874e+02
3.868268900146410942e+02
3.873011553099694879e+02
3.868064753167007552e+02
3.866710210671965342e+02
3.866706693128414827e+02
3.863901206409400970e+02
3.861813687945502807e+02
3.864632077718091523e+02
3.866817324827822517e+02
3.865884496154946532e+02
3.865781617615079426e+02
3.861369112113183633e+02
3.866670890644103338e+02
3.860171347078901931e+02
3.860797581075907488e+02
3.859370013649198086e+02
3.861034384168772249e+02
3.864265228674735795e+02
3.863433144551883629e+02
3.868355762637143016e+02
3.870487580101489016e+02
3.869047529339641756e+02
3.861673529310246522e+02
3.864454074643234662e+02
3.867486855557998524e+02
3.874626186484367736e+02
3.879313011835004090e+02
3.874066900099044233e+02
3.871229557259884473e+02
3.873043398094796430e+02
3.876408468541831667e+02
3.880989012093738779e+02
3.884777049449982087e+02
3.885234670938993986e+02
3.888211796183883280e+02
3.889802001958275355e+02
3.886499661711535509e+02
3.880665343476053408e+02
3.878667278631839395e+02
3.881328471225227759e+02
3.883374160453228114e+02
3.886489640050031653e+02
3.887469729013591291e+02
3.886496605352562597e+02
3.880594511193755807e+02
3.874429330468555577e+02
3.873867699728426715e+02
3.876040891312332519e+02
3.878088321107464935e+02
3.873658420048234916e+02
3.876682490036531021e+02
3.882760457325734933e+02
3.879973410908927463e+02
3.875691502553981422e+02
3.876355677070703791e+02
3.881661821684242000e+02
3.885408804513705832e+02
3.887009150279839673e+02
3.887303590315640349e+02
3.883513347162294735e+02
3.885134982258817331e+02
3.882422672011004465e+02
3.874552975460753714e+02
3.869555166090179341e+02
3.869355329568101070e+02
3.874892275807203532e+02
3.874754480742728902e+02
3.877294593177248885e+02
3.876827061277411417e+02
3.870963499289586593e+02
3.870435052597846948e+02
3.873071122770001011e+02
3.876874020179983518e+02
3.874685603437868622e+02
3.871477535987026499e+02
3.879940972239943449e+02
3.879382707337858847e+02
3.876858984147887668e+02
3.869848903224131504e+02
3.875010773939399655e+02
3.880708768653229868e+02
3.878707854780802791e+02
3.884801440650952600e+02
3.883076835991290636e+02
3.890936437050021937e+02
3.895093566667436562e+02
3.893671661899191463e+02
3.894768502359673903e+02
3.895456144696932483e+02
3.893678386495796531e+02
3.892243356172668314e+02
3.891606881046977833e+02
3.891637086611890481e+02
3.899371373918563677e+02
3.893038410008427377e+02
3.891584580346975031e+02
3.887139556277901420e+02
3.887234527930190779e+02
3.886661714476217071e+02
3.888485447517269904e+02
3.886702628422585803e+02
3.884737788081570216e+02
3.885653334470411551e+02
3.890152743929164103e+02
3.884804425202697757e+02
3.880710089501919811e+02
3.874555929671396370e+02
3.871689221715508324e+02
3.874094723888488261e+02
3.873812519402260932e+02
3.877119800189528291e+02
3.876964844205456870e+02
3.878379195054022830e+02
3.871843768094915390e+02
3.866623378522340317e+02
3.867864849894491499e+02
3.870678442741023559e+02
3.868888477308631764e+02
3.869238160375506936e+02
3.875297695453530764e+02
3.878245160261766955e+02
3.875316483666865679e+02
3.866252046077487421e+02
3.855319421706983007e+02
3.853758298877228299e+02
3.862485477064080897e+02
3.863482305206110823e+02
3.865747430287975703e+02
3.869737145870375343e+02
3.868276353940465810e+02
3.866912090160682851e+02
3.864804046961837116e+02
3.869012549098762861e+02
3.871054350622030142e+02
3.866797435232964517e+02
3.872235184317565313e+02
3.875207921229723524e+02
3.881795952556590805e+02
3.881489760405846710e+02
3.886741493334148458e+02
3.891062728796520105e+02
3.886924898134114983e+02
3.889005832581819391e+02
3.890826613434986712e+02
3.898175022779030883e+02
3.899277281146507335e+02
3.898559660802511644e+02
3.893587735414511712e+02
3.890264610510820376e+02
3.886133394205699574e+02
3.884382332116873044e+02
3.887255160881671827e+02
3.889529792837922741e+02
3.885672432162866698e+02
3.880267442351444629e+02
3.879006389852164602e+02
3.873518287708570824e+02
3.873579229807434672e+02
3.871393078533239418e+02
3.879811641327738130e+02
3.877093471204382809e+02
3.879122809619856298e+02
3.874674490508532472e+02
3.873631885755021926e+02
3.874609252111584965e+02
3.867799205938331397e+02
3.868160668427154860e+02
3.869489261200635610e+02
3.869874472670727528e+02
3.869014957169833906e+02
3.872445822267162043e+02
3.879835154659903651e+02
3.879131824968575302e+02
3.874965215783771555e+02
3.874613347147158038e+02
3.869201495192878610e+02
3.872415195972529887e+02
3.872966621993239755e+02
3.873259790737466233e+02
3.877036277241295466e+02
3.877154359700622877e+02
3.874488612909866561e+02
3.871272992550731828e+02
3.873466325560527821e+02
3.872113777486332538e+02
3.871956676387273433e+02
3.871249383138431313e+02
3.881467103703738530e+02
3.878222357922448964e+02
3.877707410992338737e+02
3.876106955998276362e+02
3.878353190718511314e+02
3.878035424453885298e+02
3.879377454284068563e+02
3.877658979535605113e+02
3.881322772157433860e+02
3.880956458128598570e+02
3.876381808838805796e+02
3.872735671696337931e+02
3.873850055374140311e+02
3.874984599693811447e+02
3.887870724929250628e+02
3.879636439746666952e+02
3.882287285017555405e+02
3.885390714145396487e+02
3.887156773834209957e+02
3.886598935730157791e+02
3.885065868293495441e+02
3.878058022496524586e+02
3.873609646748568593e+02
3.868822517805096481e+02
3.873876143653321833e+02
3.880672784122318149e+02
3.883445093872511507e+02
3.881016756996369850e+02
3.875507724558627274e+02
3.877957855438598926e+02
3.881186957354691458e+02
3.879226283856434065e+02
3.878447983358333317e+02
3.880173138203099370e+02
3.881945408712740573e+02
3.884241693081033873e+02
3.880771218704177841e+02
3.879208775025721820e+02
3.874172571030437098e+02
3.867432923261980591e+02
3.867436166724316990e+02
3.869576829627335428e+02
3.868724017484248634e+02
3.868223001159231558e+02
3.867951938932010876e+02
3.869289895976770026e+02
3.867406980619992964e+02
3.867524350063733891e+02
3.869439921533997335e+02
3.867789653552337086e+02
3.865841797141217171e+02
3.864826427560048501e+02
3.871164803308967635e+02
3.870846534393676279e+02
3.873652456001623818e+02
3.871155490617583723e+02
3.873063260382622843e+02
3.875793975534682545e+02
3.876041678157888555e+02
3.884008903102802037e+02
3.889857983289175536e+02
3.886336475201501344e+02
3.885227624726868498e+02
3.880882396543098594e+02
3.882929632155278910e+02
3.892313874930414954e+02
3.894131886653610763e+02
3.896273005684321333e+02
3.902409929753869164e+02
3.902791835056658556e+02
3.892971904365366527e+02
3.883722619762892236e+02
3.888903597272982893e+02
3.890639332055266664e+02
3.891288297595706922e+02
3.888300273831867457e+02
3.890881129291300340e+02
3.892637632548612601e+02
3.895884121931146069e+02
3.897108376758391728e+02
3.891690909680047525e+02
3.889200861052743790e+02
3.877955205650164316e+02
3.876213319717910508e+02
3.881506099081962020e+02
3.887603259132399671e+02
3.885530419687110566e+02
3.886562636663313128e+02
3.887141401016071427e+02
3.882760782986812274e+02
3.878710388261648632e+02
3.873816294845036623e+02
3.872112388875843294e+02
3.872882110936886875e+02
3.873530939942483542e+02
3.868004164036187831e+02
3.873242367873106105e+02
3.873546510989004332e+02
3.870136207035959615e+02
3.874266927769994027e+02
3.875252406322242678e+02
3.877711771006738104e+02
3.877869134050515640e+02
3.876755369330924168e+02
3.877650735861884073e+02
3.876317824540170136e+02
3.873575436159987362e+02
3.877985676193914628e+02
3.878457742063768592e+02
3.878982644916323466e+02
3.881893962363186006e+02
3.874872648157068511e+02
3.869891040927738572e+02
3.871141037134374869e+02
3.862299627783739311e+02
3.860234087392920515e+02
3.863434403707071283e+02
3.866078415153443757e+02
3.869077416323125931e+02
3.871122514911278927e+02
3.869963936404063816e+02
3.874499578179193691e+02
3.871248313109402943e+02
3.869762446292634195e+02
3.872434033742943598e+02
3.876778195943124956e+02
3.876042541867526552e+02
3.877843397727941124e+02
3.884089643773216949e+02
3.890937177372615565e+02
3.890145758399224292e+02
3.885169897772015020e+02
3.885237718195626826e+02
3.887164394504268330e+02
3.887227061999678881e+02
3.888887520541578056e+02
3.888818397473917798e+02
3.893856791084375573e+02
3.895375065217666588e+02
3.894089830870911442e+02
3.891179219360066099e+02
3.894445930066657411e+02
3.888925281037491573e+02
3.883563825631136979e+02
3.889047769022845387e+02
3.892679530557662133e+02
3.895280669034673906e+02
3.893201536847675470e+02
3.891225969920483294e+02
3.883695647546682039e+02
3.880176984441786772e+02
3.880718126856246499e+02
3.882027430788431275e+02
3.882806022561009058e+02
3.883387266792090031e+02
3.886862037467100208e+02
3.887488999650258847e+02
3.886698758922434536e+02
3.884437641898359743e+02
3.883033037618749859e+02
3.884004212370543314e+02
3.888170410939250701e+02
3.897790745814434104e+02
3.895904493949276457e+02
3.898263252641439749e+02
3.898798585748833716e+02
3.900122324959554589e+02
3.897520640342919478e+02
3.897542477835628461e+02
3.896760754862718841e+02
3.898620480525683547e+02
3.902162724724503278e+02
3.909903587956412139e+02
3.913224736643873030e+02
3.911088878757877865e+02
3.905598610260575470e+02
3.908558598858754749e+02
3.913021546420120558e+02
3.918671962261751673e+02
3.918509702166292072e+02
3.920897493234589888e+02
3.920684975148910780e+02
3.920931968802038909e+02
3.917690096321790634e+02
3.913850771401067732e+02
3.915910237505946725e+02
3.911265221163871502e+02
3.910757408435000571e+02
3.910336594731752484e+02
3.915647578748868227e+02
3.914945927931106553e+02
3.909151864229027638e+02
3.905239127022108505e+02
3.906024966269326910e+02
3.901981938360427762e+02
3.903923535405004941e+02
3.908439180380162838e+02
3.916388459582645396e+02
3.913053930475187485e+02
3.909402582756478068e+02
3.905671267053687643e+02
3.905263839838673334e+02
3.906301241095510477e+02
3.903884614868150038e+02
3.914021312590898560e+02
3.918775611465324573e+02
3.919778313642084981e+02
3.920382212552516421e+02
3.923525880031823476e+02
3.923154182482515466e+02
3.927397725542508624e+02
3.930977939590788992e+02
3.931274131318790523e+02
3.937473973703419574e+02
3.938019307233568611e+02
3.931700614760113126e+02
3.929057479159802710e+02
3.930300281494367596e+02
3.928210606790452175e+02
3.921380577976392487e+02
3.917556353815340344e+02
3.917227961090206918e+02
3.914192132918761899e+02
3.915663235761905980e+02
3.916660235836764627e+02
3.916004162390688634e+02
3.916148394822741921e+02
3.913956897448779273e+02
3.915281976724222091e+02
3.918360291521822774e+02
3.922848342288385766e+02
3.920640482976825751e+02
3.919941345412578926e+02
3.912570100353973999e+02
3.908148196194279649e+02
3.918088375698674781e+02
3.920966844871775834e+02
3.920710909699935769e+02
3.922136490796710859e+02
3.925399379537519735e+02
3.930793203828386027e+02
3.938586299244075803e+02
3.933516142559477089e+02
3.931008213928793680e+02
3.932733810742098512e+02
3.934532606442617748e+02
3.938422012363902809e+02
3.942305930593663561e+02
3.946950862992101179e+02
3.942317733277042180e+02
3.942175540777490141e+02
3.935128905921759497e+02
3.931462643535344341e+02
3.929109335114059718e+02
3.930209035727770583e+02
3.927093825155308195e+02
3.927866144413492293e+02
3.927390262646140400e+02
3.928466889873474202e+02
3.920090986649311731e+02
3.921444921311237977e+02
3.923972037646248623e+02
3.925292939965169126e+02
3.925972775540379303e+02
3.926974988214256541e+02
3.930166643158994475e+02
3.931128668049905741e+02
3.927033068137066607e+02
3.927856930836319407e+02
3.927394195862532342e+02
3.969707712934970232e+02
3.933745758859909074e+02
3.934421326455315011e+02
3.932392504849712509e+02
3.929445701477210946e+02
3.923328767128087406e+02
3.921416156948036473e+02
3.923860083075424541e+02
3.920141769540397263e+02
3.915316514996579826e+02
3.915822542658074212e+02
3.919125359259875836e+02
3.919221046961861816e+02
3.915082425408408540e+02
3.912123409747787832e+02
3.913794772876883030e+02
3.909782834469934869e+02
3.914719440808310083e+02
3.914792696332229411e+02
3.920310683436524073e+02
3.923721111788055396e+02
3.928157006223658527e+02
3.924860448988351322e+02
3.920415060826240392e+02
3.921779122332087582e+02
3.924716563456071299e+02
3.921184160894983393e+02
3.923849384807620595e+02
3.926245259753246160e+02
3.928893956875065783e+02
3.921195638928687686e+02
3.921376286735096528e+02
3.916507148863705083e+02
3.915676925661005043e+02
3.922271143535783722e+02
3.928758933974711454e+02
3.928671718516011424e+02
3.933074443062319006e+02
3.932136675871664124e+02
3.932592406099446976e+02
3.930213328991800381e+02
3.932746720875206847e+02
3.938131657249927002e+02
3.941570798384804561e+02
3.941734462261294993e+02
3.943020182065482686e+02
3.938141000282455479e+02
3.935055571511016979e+02
3.937562318861972130e+02
3.933310649447111587e+02
3.928444337342465928e+02
3.921937280312405960e+02
3.916226326919748431e+02
3.918845135035346061e+02
3.921519339910213944e+02
3.921367282511413350e+02
3.921218177300546017e+02
3.917247434000763633e+02
3.917184850449018541e+02
3.918502645840515015e+02
3.920531510934982862e+02
3.918592116653442758e+02
3.914585257344735396e+02
3.917511672517194938e+02
3.921509988786754661e+02
3.919977516035424401e+02
3.921467048055662872e+02
3.924348207471990122e+02
3.929454670302962995e+02
3.928557491397660328e+02
3.928382852138095700e+02
3.934189282867826591e+02
3.939168256490744398e+02
3.942274312145415820e+02
3.940810057285956418e+02
3.944695490547399572e+02
3.950782243604504629e+02
3.951189877138935458e+02
3.952041480695306745e+02
3.951863500881967752e+02
3.955517456922911492e+02
3.951587240214919348e+02
3.954678830250057331e+02
3.951982180049335511e+02
3.951016788309031540e+02
3.949817952234351424e+02
3.945276275616679413e+02
3.944081536600298818e+02
3.944307931688451276e+02
3.946432929487530714e+02
3.945711497291451337e+02
3.941730275191101782e+02
3.938228581856913024e+02
3.941073561548018915e+02
3.935878857729520632e+02
3.940980942341470836e+02
3.939713468656542545e+02
3.941751506873392259e+02
3.941352865426192125e+02
3.942264310711279336e+02
3.943748238732502500e+02
3.940299014242586964e+02
3.934122102641202900e+02
3.937115421936366033e+02
3.939062634105044367e+02
3.934638946900728342e+02
3.939442090882006937e+02
3.939169407429308194e+02
3.942159949503550820e+02
3.936698384687234693e+02
3.928019062487843485e+02
3.925206351555619335e+02
3.928952615301313358e+02
3.920379462638549057e+02
3.922908123334948414e+02
3.926586658691647358e+02
3.934110842051930490e+02
3.937018158520575639e+02
3.939233976299660185e+02
3.940404438399770015e+02
3.946115242109729024e+02
3.949778890105704932e+02
3.949683713145413435e+02
3.959073346520612517e+02
3.958746807635946539e+02
3.955281937258092171e+02
3.956153610433131007e+02
3.957010227348670810e+02
3.952725101826988521e+02
3.948996471310546212e+02
3.948094215329771828e+02
3.949609753708210178e+02
3.953321052383614642e+02
3.949514600009450760e+02
3.948324939079884075e+02
3.942365051215860490e+02
3.940719315181437992e+02
3.935798540822999598e+02
3.937125861293505977e+02
3.941901579965018527e+02
3.950746661598730611e+02
3.944886501858238717e+02
3.940862088207126135e+02
3.938269175199127403e+02
3.935374513998449402e+02
3.937152888123729326e+02
3.939246923853406770e+02
3.940334120904624342e+02
3.940865924332109103e+02
3.945931101032684296e+02
3.947151140471335680e+02
3.946233605729795499e+02
3.943799961185945904e+02
3.939770455288841049e+02
3.937730444901191618e+02
3.939141237751481412e+02
3.936975328028765944e+02
3.927553514895164426e+02
3.925781067395875539e+02
3.927805467293490551e+02
3.930893319306505873e+02
3.932017839941939314e+02
3.928991678441342970e+02
3.927619417761976592e+02
3.934741028481372496e+02
3.938455719290418529e+02
3.936061311842096870e+02
3.940658745266579785e+02
3.942491088097208376e+02
3.941834350181266586e+02
3.935788247103066055e+02
3.938771907818431828e+02
3.943105638752371647e+02
3.946438919829753331e+02
3.946693742495023685e+02
3.950336231627328516e+02
3.945626886109535008e+02
3.940691967747067679e+02
3.938824140002163290e+02
3.937730310389034685e+02
3.941148350308282602e+02
3.943673774621909160e+02
3.946849489370175661e+02
3.951136895530303832e+02
3.952362436819702793e+02
3.946263465406304931e+02
3.943425684644133185e+02
3.948422678850780585e+02
3.951956145372747642e+02
3.953162802368668167e+02
3.949861993335554189e+02
3.946996513182376134e+02
3.949752902963502947e+02
3.945339349682679426e+02
3.944350575076879295e+02
3.943061887914242902e+02
3.949961395798098920e+02
3.950858914523600447e+02
3.952758696491454202e+02
3.949816351236226524e+02
3.949526722285652340e+02
3.943597300919886948e+02
3.939403846951408354e+02
3.937722629036784383e+02
3.940502001181030778e+02
3.945405044207371361e+02
3.940403372416256502e+02
3.942463773026665876e+02
3.943960310804197320e+02
3.942147233553370711e+02
3.943903307989998552e+02
3.939433752139543685e+02
3.942056248720110716e+02
3.937782539538630999e+02
3.933662623266211540e+02
3.935227506368208878e+02
3.938424012852993883e+02
3.939126247231026809e+02
3.935141800884344434e+02
3.932382898861139324e+02
3.933542109474340123e+02
3.933444073372159551e+02
3.934320537405007485e+02
3.933112632378970943e+02
3.941663387250277424e+02
3.944073874464084497e+02
3.949645411566722828e+02
3.955849179076867017e+02
3.951650194939334142e+02
3.955536547535767795e+02
3.956436516809870909e+02
3.955890393399987488e+02
3.958371922249659747e+02
3.961050565014354561e+02
3.958988074914313984e+02
3.953051338312136522e+02
3.951468977731855716e+02
3.952413238926820327e+02
3.951933867934247360e+02
3.953306015340191379e+02
3.953888381180158831e+02
3.952064919186147449e+02
3.951055615799890575e+02
3.952738763407760985e+02
3.940462450560890488e+02
3.935417942209751345e+02
3.933347602870085780e+02
3.929533188994321904e+02
3.929386528263817127e+02
3.916981129256236613e+02
3.883921061606305898e+02
3.800789528585143557e+02
3.613139176967887352e+02
2.488157434851910637e+02
9.869126743433392912e-01
3.027769578315501198e-01
2.608977602897532000e-01
2.246898178649662237e-01
1.899466420506653597e-01
3.316533807855868154e-01
2.829212438781006922e-01
3.206309690471024210e-01
2.703434468070148311e-01
1.350055048038304450e-01
9.064036075351111776e-02
3.807502175750329121e-01
1.778018123077474977e-01
2.388903574838843191e-01
3.383956763241773302e-01
2.663967791595260870e-01
8.058684110365876840e-02
2.579034994112042734e-01
2.755194342184742462e-01
1.673068298226125794e-01
2.039711022202100876e-01
2.957212388539989245e-01
2.110614100385651559e-01
1.467513492310492662e-01
2.573804190480048493e-01
2.947565945161288448e-01
1.974269339923075961e-01
2.544701018484266664e-01
2.400721428806453783e-01
2.740473857461341312e-01
2.150669393974288246e-01
2.318883422337183475e-01
3.122165761289568131e-01
2.842069980688283204e-01
1.955836117354909920e-01
2.170658103003736406e-01
3.289537318777364105e-01
3.468896640285800137e-01
2.708096882004976114e-01
2.026419602733346981e-01
2.788045649997752395e-01
4.010671160780643341e-01
3.287337589838892904e-01
2.278790708061299020e-01
2.705930528264373636e-01
2.056988249323730145e-01
2.829174006722379175e-01
1.237006175327279855e-01
2.783488418503314854e-01
3.646327279917249142e-01
2.834190400029236168e-01
2.483465622420798491e-01
1.932288398614264713e-01
1.459056419625116563e-01
2.458682009999149654e-01
2.319472039435421795e-01
2.756398883402089162e-01
2.158607634054212632e-01
3.067193777247831377e-01
2.567360754678371659e-01
1.788584912837734020e-01
2.631897260586790743e-02
1.510062823366923324e-01
9.678898232294874671e-02
2.382962789735568743e-01
9.082230614831043880e-02
1.328761672193249366e-01
1.723115923601498123e-01
4.827388533597565257e-02
7.462269334673998777e-02
1.486099431730907305e-01
2.376568911031040621e-01
1.888118853447446899e-01
2.135794169665987674e-01
7.080436850682869654e-02
1.017056545670363965e-01
3.548081824239396886e-01
1.348734199317213056e-01
1.998636268035266506e-01
2.986676619517522058e-01
2.457587708091488188e-01
1.344141569938056557e-01
2.813301572017753993e-01
3.636839621557708124e-01
3.261491027977920232e-01
3.043366920506547224e-01
1.958912703705104619e-01
3.156217564815773646e-01
1.479314153007463828e-01
2.042413401802491979e-01
2.280844799785179955e-01
3.855629210251542149e-01
3.321539076076061026e-01
3.109467004392884038e-01
2.666250452832634732e-01
1.980632877543072601e-01
3.651711811766632509e-01
3.507076854574661118e-01
1.000100934074084069e-01
1.976932276123740673e-01
2.587251360859275651e-01
3.347001317495233996e-01
2.168177213386320856e-01
1.288200693801391239e-01
2.181401882422058236e-01
2.308165938544285423e-01
2.106436132497894187e-01
2.896477620474103287e-01
2.552290336023405048e-01
1.818941171826328196e-01
1.381170845605426134e-01
2.971531359544716810e-01
5.424056150991551917e-02
1.989092984361205962e-01
9.822361012201596964e-02
2.132589139372629283e-01
6.662943473902038782e-02
8.292795948405695672e-02
4.206973957106685535e-02
1.543557362253138443e-01
1.686655037618862707e-01
8.808655134011311727e-02
1.877426653889975317e-01
4.040785702407700408e-01
2.284458423375090863e-01
7.515538172494262703e-02
1.722258282135616936e-01
9.007126307325308279e-02
1.883550496902060001e-01
1.816071916212499415e-01
2.591614409366759242e-01
1.870394600955894715e-01
0.000000000000000000e+00
2.555922164339174407e-01
1.918637942915838446e-01
2.921858952301406021e-01
2.137153450434069457e-01
3.737319192770436338e-01
1.528056100198172951e-01
2.312477407191702028e-01
3.574647469880643524e-01
2.954623282314492450e-01
2.821915406984190078e-01
2.290003762997242509e-01
2.741794706156049921e-01
1.731247335311738578e-01
3.347466547529676095e-01
2.391065883083851595e-01
1.911827379963952911e-01
2.946718417402931500e-01
3.087397908054507201e-01
2.932596663520993241e-01
2.508665919102989195e-01
2.966870968374378803e-01
3.119154913945874075e-01
1.862482656471121656e-01
2.834540333889378760e-01
4.183472761706962251e-01
1.144469901067652895e-01
1.781621633044482289e-01
2.065767948931437337e-01
3.616554581222028997e-01
1.936673697239176262e-01
1.465576719534724681e-01
2.853077727575476508e-01
1.628739968016866824e-01
2.037647828190977117e-01
1.593864909609546965e-01
3.269401961088206909e-01
2.916024360972644391e-01
2.224523648675900134e-01
2.513585220853482016e-01
7.834069030394075206e-03
2.059574321430442945e-01
2.331529587956596705e-01
2.029537655235327254e-01
2.862854637650163458e-01
2.854708055390288157e-01
1.118542429630332569e-01
2.270339703576987889e-01
2.515070922877095660e-01
2.221265015764956052e-01
2.606650441433859267e-01
3.681243804518273821e-01
3.298686168290447251e-01
3.380109513195330706e-01
3.402632714502460409e-01
3.197242761850534465e-01
4.915776169757100078e-01
3.984998554467489296e-01
2.630695754027689848e-01
3.054546600211229257e-01
2.374551228638563938e-01
2.427721963379758097e-01
2.207404195206708053e-01
3.082214638780811367e-01
2.512600146910531351e-01
2.816442886005416368e-01
1.365785891060427026e-01
4.047430400785848037e-01
1.949515057218464964e-01
5.682924295131567272e-01
3.253469855568814073e-01
1.801929934926389532e-01
3.024684900969477064e-01
2.495537330121015418e-01
2.697045646219375370e-01
1.443061609145787072e-01
2.621186856921323693e-01
2.225791906179523938e-01
1.978756786929378730e-01
2.745310226944770449e-01
1.624275782559907455e-01
2.744341334840540991e-01
2.990369129982162755e-01
2.839846990285864181e-01
1.663014272930799509e-01
2.033943181297803715e-01
2.286283945531127904e-01
1.709754719615890206e-01
1.941180360268975891e-01
1.897814853915521516e-01
1.938016796110314521e-01
2.143629250076219961e-01
1.546918143495784603e-01
1.297571033264834917e-01
3.024699060162485686e-01
1.223171650339347494e-01
9.106382120963385507e-02
2.299360954675533364e-01
1.077944030532594910e-01
1.707403285266425597e-01
2.779553179357002746e-01
2.161542628690849011e-01
