-1.394589697681284601e+00
1.100678810430044674e+00
1.461381356104142881e+00
1.337701572789255167e+00
1.374363620171383360e+00
1.357348944600865526e+00
1.333165276656245180e+00
1.390344170311014871e+00
1.235439462654936982e+00
1.389340284829846839e+00
1.366227353896947161e+00
1.245463753724890488e+00
1.362590468763974716e+00
1.356548647825011278e+00
1.329340580186773701e+00
1.344262732023780105e+00
1.394799354600475993e+00
1.360116456413281050e+00
1.364423778464534776e+00
1.423630468192754961e+00
1.272148033040743753e+00
1.329369404221540485e+00
1.365650873220568107e+00
1.336091472359912213e+00
1.352475963524724545e+00
1.203600030141428245e+00
1.239004338273212769e+00
1.269904107279775207e+00
1.374183090698603227e+00
1.297010329999427558e+00
1.228345918452923513e+00
1.200503216382002414e+00
1.323699969573777002e+00
1.160153816520223868e+00
1.321440266444459333e+00
1.369774429408550542e+00
1.318759833555362304e+00
1.282586581106653467e+00
1.264591483829838214e+00
1.330734854335430040e+00
1.183402270981849025e+00
1.320417974035971387e+00
1.267273838322682256e+00
1.358061151084823281e+00
1.329204854383231993e+00
1.187868175791253478e+00
1.359470090091297712e+00
1.406405326609128981e+00
1.288790018907330248e+00
1.273476568167046352e+00
1.389247036549303260e+00
1.319547184800228701e+00
1.419148988296339953e+00
1.447698738865909718e+00
1.290480927764074082e+00
1.358725216370671562e+00
1.372166116274316616e+00
1.372694152348160834e+00
1.419097003901453213e+00
1.288693534248638972e+00
1.385873916614408508e+00
1.331840483599054492e+00
1.256435900396717376e+00
1.317358277543375866e+00
1.270158466734095271e+00
1.401621548331999367e+00
1.304752667806569288e+00
1.332445383764755409e+00
1.396580376487749353e+00
1.388262670506916763e+00
1.457236864564133150e+00
1.341536484092284987e+00
1.358727036839376012e+00
1.258559068631139422e+00
1.344487154942664020e+00
1.321139383983201299e+00
1.356928720528169041e+00
1.496416008641146878e+00
1.448312842499308140e+00
1.252558309295949357e+00
1.409670128860604610e+00
1.280649909430213285e+00
1.407053007708386483e+00
1.437762841500507704e+00
1.328460486344487546e+00
1.292153429699088196e+00
1.370249773128400683e+00
1.362532618421875785e+00
1.262870132744751572e+00
1.392914970733907243e+00
1.325806349067389700e+00
1.383199754220217459e+00
1.280375625990038735e+00
1.345082143683422160e+00
1.386174192253230020e+00
1.326153653396120902e+00
1.509406343381510140e+00
1.380479979050295070e+00
1.372235900773622230e+00
1.322186758355091474e+00
1.354966764609551788e+00
1.299239287488601846e+00
1.353495626370127658e+00
1.348860418292175067e+00
1.318787342807886453e+00
1.373363375623589455e+00
1.214864563768018879e+00
1.287458955360045953e+00
1.387230668955137247e+00
1.258539144645749008e+00
1.410764936469787401e+00
1.416874316898955488e+00
1.351563708135726793e+00
1.341338761332941498e+00
1.150726132390507139e+00
1.442861560277773014e+00
1.260977253378055885e+00
1.273170527720868250e+00
1.319961138380268295e+00
1.206080818666116272e+00
1.250517871098110634e+00
1.169567038069347253e+00
1.200637121718780342e+00
1.223599763128388140e+00
1.224238948723556764e+00
1.284245631818160094e+00
1.248293667045540012e+00
1.241418679815119663e+00
1.064856199828300376e+00
1.190359785971392581e+00
1.122565354571686047e+00
1.260392985151651324e+00
1.026402207759167462e+00
1.110772279181371225e+00
1.137679666634720643e+00
1.141022647757420794e+00
1.152661994963791514e+00
1.042749379385515374e+00
1.023616289022303061e+00
9.814948684568144399e-01
1.069213281265261273e+00
1.055076053384076840e+00
9.808475919071948379e-01
9.744569495884953803e-01
9.533379338459523344e-01
1.007140471180770547e+00
9.590593528914750365e-01
9.319865053703939584e-01
7.980569966946757798e-01
9.100197596213789319e-01
9.968465489739903873e-01
9.002523564337914230e-01
8.033387733683413634e-01
8.157558638067478052e-01
8.977629712658611316e-01
8.589381099595596591e-01
9.396681610051409450e-01
8.570175190615616501e-01
8.857550809738404807e-01
8.349922150133587406e-01
8.654997748822540471e-01
8.809495582471947861e-01
6.837516994686589911e-01
8.250963678838513227e-01
8.008877191076088087e-01
7.242681775887175322e-01
7.918407144957222421e-01
8.023161775517795302e-01
8.317514833563197652e-01
8.508238915439532146e-01
8.475843735321720862e-01
7.519132580392171583e-01
8.153690149313808089e-01
7.132384839891539041e-01
7.335249402615129366e-01
6.947432644374721411e-01
7.293714475277698339e-01
6.531807267243501247e-01
5.261770771700855498e-01
7.549153064653082446e-01
6.253256859406854939e-01
5.983136217385316424e-01
6.483884529429781995e-01
5.730682179694026601e-01
4.763589315671302726e-01
5.346901797595966510e-01
5.472627177109522512e-01
5.602098669656403462e-01
4.772289117112097356e-01
6.264256515371955381e-01
5.062504662062572436e-01
4.554307612734197486e-01
4.011992009511819446e-01
4.647656016796053446e-01
3.741913844914064313e-01
4.534022572377568450e-01
2.911124275252606752e-01
4.393092262123029501e-01
3.768545229655765327e-01
3.757477811946055568e-01
3.563103697125894476e-01
2.479560724358235713e-01
2.672279227090890719e-01
3.299674276426710073e-01
3.797087091495006672e-01
2.521438505953093601e-01
3.419364813439012551e-01
3.424548082698738449e-01
3.734490391990591407e-01
2.296583733698309149e-01
3.140269277369932555e-01
3.433601863485164496e-01
4.342679532290529831e-01
3.681377305320619464e-01
4.169396519414163560e-01
3.479836625381792503e-01
2.900949896909029158e-01
2.973914146361722466e-01
4.570084978735462489e-01
2.565076070718432799e-01
3.081540055221413388e-01
3.462869888773378868e-01
3.755991098610063639e-01
2.716972661727011240e-01
1.930338478023066462e-01
3.393569831408607684e-01
3.485044167538174920e-01
2.139454316341402595e-01
2.764001348769080102e-01
1.760775282548372456e-01
9.204039971317157232e-02
1.986044716360542695e-01
3.036630187520512059e-01
2.083362746144928890e-01
1.653494250718366421e-01
8.275562210410658537e-02
1.326242350493922473e-01
2.970122521686485717e-01
1.084764707254100014e-01
1.200236821614545368e-01
3.056851511584644521e-01
2.002359119644994134e-01
2.599630524948494670e-01
1.572572545152157719e-01
8.191830920174214548e-02
1.630980151755919705e-01
2.725941487453165113e-01
1.871026706982814036e-01
9.171898644944398438e-02
1.411419899418637769e-01
1.218028835853802727e-01
1.570855239526550706e-01
2.351137010721237042e-01
2.777223995117970023e-01
2.453822379009832355e-01
2.499826548657983483e-01
1.769942336757053258e-01
2.163313536890544286e-01
2.527377268337679395e-01
2.767660484077779648e-01
2.848450711596795526e-01
2.486415787588424076e-01
1.963302047831809727e-01
3.398358666538411343e-01
1.604232459546941492e-01
2.675484257441704261e-01
2.325986271129207306e-01
2.635523021204458916e-01
2.480182716655891517e-01
2.646774508147784477e-01
1.087505518893687739e-01
3.731152872246048524e-01
1.332174033262589763e-01
2.000715643985248038e-01
1.250812381931519779e-01
5.609824521942785580e-02
8.202045753251696603e-02
7.543532883557080293e-02
1.961523048695281712e-01
1.530387307159749577e-01
1.307081953151996156e-01
1.016267677387999724e-01
1.170285110488246128e-01
2.104602519425203266e-01
1.637812964850842157e-01
2.483977375435165169e-01
2.731665839480792446e-01
1.069101626057313847e-01
2.255733503618470026e-01
2.694307868665939409e-01
9.269718313856389891e-02
2.542472971241278024e-01
1.165775413376172187e-01
2.057643616883683690e-01
1.381040378933481305e-01
1.907562434309662547e-01
6.501215359132539451e-02
2.033853169430336894e-01
1.686114966261934023e-01
2.577585701489696901e-01
1.367435434907257052e-01
2.371064026207143627e-01
1.177584164989767812e-01
2.809328912181082716e-01
1.059004111828648620e-01
1.747274509581077107e-01
2.610807170580984327e-01
1.128183816178548460e-01
3.362535954789213632e-01
1.866820420734650599e-01
2.653285705754631629e-01
2.875410791418419598e-01
2.301623388500950718e-01
2.774162579322073663e-01
2.084033284181559531e-01
2.059530832563082892e-01
2.185621316475566123e-01
3.277275473563267538e-01
2.751773890140531420e-01
3.427529600324612513e-01
1.189432360029499813e-01
1.942148240989413632e-01
1.955850276494346396e-01
3.072674389213091439e-01
2.702271393015454048e-01
3.632946859957056351e-01
1.832314512238897297e-01
2.358063881186182598e-01
2.053120771905714848e-01
2.854975056954628387e-01
1.569566754673106246e-01
2.402661235725062072e-01
4.000049757075676560e-01
2.777140051473321325e-01
3.609353629599318936e-01
2.146613801785158815e-01
3.332343537672753375e-01
1.876109850668337686e-01
2.618835422540016222e-01
1.923121344444400083e-01
2.838751676995965867e-01
3.213145537672293384e-01
3.328286934170468503e-01
1.951303158743924460e-01
3.234623994194533725e-01
2.730963948971172339e-01
3.023602735497326055e-01
1.710211858694879461e-01
4.037688888677382071e-01
2.118630215960398688e-01
2.485765476914056360e-01
1.372461941882043845e-01
2.838671778803411594e-01
2.751469467923091661e-01
2.701647377940116224e-01
1.822123952020886506e-01
1.449903524652942366e-01
2.445917514111478064e-01
3.135648329589210692e-01
3.376134830634553441e-01
1.251389873962499566e-01
3.620868072676619587e-01
2.278309296138426587e-01
1.617303400450691431e-01
3.896776783021395629e-01
3.241778422827222839e-01
1.959252523884901231e-01
2.584949483647316359e-01
3.785596921325231623e-01
2.379660667919232253e-01
2.387371349868677162e-01
3.030954381229531425e-01
1.921898598559428351e-01
2.265081592966831647e-01
3.626337559533505672e-01
1.942822824502991597e-01
2.543880797705624364e-01
9.710422623348702320e-02
3.712848093600866761e-01
2.588337571857275421e-01
2.580757356599930885e-01
2.984845029180584475e-01
9.094033298550141531e-02
1.101135747235308937e-01
2.748033845294315380e-01
2.660939750962288408e-01
6.346647740977839902e-02
6.962743768442991588e-02
1.125525936859587128e-01
1.263452479359955527e-01
2.334783164065796224e-01
1.091916101814586204e-01
2.397071395868832222e-01
2.432674640375483421e-01
1.882011192339282935e-01
9.697011862297766349e-02
1.900161231213981505e-02
2.138359003011900406e-01
2.026422636840476410e-01
1.991614328837437164e-01
1.410375154610454818e-01
2.660622180940288017e-01
1.041096801422851659e-01
9.685502476377849668e-02
1.247402043568432983e-01
2.444118287564558401e-01
9.104541428797907621e-02
-3.898839977183943262e-02
1.820204372489370725e-01
2.016204769634186711e-01
1.598323026914326705e-01
1.003297873477191349e-01
2.051488421370672444e-01
9.149031578049615643e-02
1.079119242059286554e-01
3.423864396849005676e-01
2.668686842236940304e-01
2.127125720699731271e-01
1.644969416242575422e-01
3.054328144397498446e-01
1.184876139935931993e-01
1.997909093308855577e-01
3.940445700227887538e-01
1.811418604634791318e-01
3.916623900338037645e-01
3.170205817977636564e-01
3.173323870478850783e-01
3.625274610085630900e-01
1.685833805502237048e-01
2.488058251858175640e-01
2.787427703187126404e-01
3.473080676358309415e-01
2.883006177229278655e-01
3.231526169059467657e-01
2.489082769262167538e-01
2.189370463627658414e-01
2.882477230899227472e-01
2.489304259200894598e-01
2.038363877893599740e-01
2.460607657765888079e-01
2.850724270501888147e-01
3.247529070446123489e-01
2.135151949978902897e-01
2.307174796323406829e-01
4.551612312712470798e-01
4.437720969053371434e-01
3.720035897429880278e-01
2.324225476635473631e-01
1.900021662424098423e-01
3.879196145040498811e-01
3.889551558523761665e-01
2.786525561466989265e-01
3.035858512510349883e-01
4.449367901566310124e-01
4.762222955336994357e-01
4.633590899533236440e-01
5.099841394131365835e-01
3.183438578000680197e-01
2.376984583960571329e-01
2.056897226074013152e-01
3.685022281395159416e-01
3.396015323170034073e-01
3.539305158752780733e-01
2.656860897324726523e-01
1.702329243929476266e-01
2.838658630973229791e-01
2.113639106913026700e-01
2.766285021365391672e-01
2.924921379499733631e-01
2.838433095573870135e-01
3.186128821174091241e-01
3.238877814793225673e-01
2.107026772389330449e-01
1.764580055087958677e-01
3.332399163047827240e-01
2.082660855599610672e-01
2.780332945328830019e-01
3.312524738720394879e-01
3.709380107187505438e-01
3.056583498664454113e-01
1.953038669010771500e-01
1.706096595711935615e-01
2.983867034727778478e-01
1.890456128628729693e-01
2.189603078623527654e-01
1.335003845430104974e-01
2.828573253184739622e-01
2.283407610371258611e-01
2.496001548787973867e-01
2.014139552899736341e-01
1.937127802249070108e-01
1.899231782771129695e-01
2.516474703910293598e-01
2.136885437498336482e-01
1.424491851685204535e-01
3.465173788735061433e-01
3.136043775150293422e-01
2.901512218433070500e-01
2.503802242645261633e-01
3.470214454901302537e-01
2.482354127188128867e-01
3.834915349194184531e-01
2.466620250125645120e-01
2.551106022246726890e-01
2.679530747227912846e-01
3.478286195784371371e-01
2.338255195956885912e-01
2.451562979296973976e-01
2.471243220609512514e-01
3.324498343610894913e-01
2.517053207299453921e-01
2.105360035250106732e-01
2.705143682707674135e-01
2.801427081379770923e-01
2.565584789631886742e-01
3.206770875018425393e-01
1.345832579900181347e-01
2.878909118900777608e-01
2.606304553038245042e-01
2.690100571068143598e-01
1.832495547406527425e-01
1.531451267982110176e-01
2.466281441343630698e-01
2.510777658827456071e-01
1.897024974291277033e-01
3.150526588020180485e-01
1.349611056808127652e-01
3.375956829580263330e-01
1.350186526132066689e-01
2.299010009461862070e-01
1.272155314899340306e-01
2.346669791118333737e-01
1.259309909412046347e-01
4.587256012077944867e-01
2.285806579109289638e-01
1.775345073252335704e-01
1.484754310179908776e-01
1.836923323569346067e-01
2.638552073199491588e-01
1.667294389123864518e-01
3.182168297780710864e-01
2.428071897257751410e-01
2.635112405117038814e-01
2.225692791982117891e-01
3.152612032154145649e-01
3.030743004992896839e-01
2.737942399315622666e-01
3.622592457814894917e-01
3.024689957862826684e-01
3.343723468598064352e-01
2.634373093952786515e-01
3.473509497093182907e-01
2.506401462535579605e-01
3.560738103574088709e-01
2.278695639348602420e-01
2.427888839390086595e-01
3.300336723507872327e-01
3.209083877317022715e-01
3.739756593527474027e-01
3.038478971195635592e-01
3.284271117195432521e-01
2.845550103574432388e-01
1.932615071022868447e-01
2.010681680172941022e-01
3.202233870914185654e-01
3.238064673608768707e-01
3.443051089785318930e-01
3.125856249019222100e-01
1.415535162396904800e-01
3.399452968431325717e-01
2.621569154655309930e-01
3.264179248417891643e-01
2.367933837268088038e-01
4.440435485125767689e-01
3.589209169612838091e-01
1.811689651665989720e-01
3.247987220914344553e-01
1.856680428983604192e-01
3.221886805255539388e-01
2.502892009977422672e-01
3.025750884553204401e-01
1.555553217271921085e-01
2.305974300610970085e-01
2.163800005681141281e-01
2.896546393590849200e-01
3.758375908169053203e-01
1.985195165909900417e-01
2.014385315679987354e-01
2.074090509481895661e-01
2.482401661613963251e-01
2.608408201820447414e-01
1.893704647811954578e-01
2.593987082540683553e-01
3.086912450621314696e-01
2.802955260865976905e-01
1.853160862745091286e-01
2.616569954639295648e-01
2.329117471490861901e-01
3.054920806959483537e-01
2.603761969829926914e-01
3.053691992911483633e-01
3.414066248031374928e-01
3.615748519658150140e-01
2.589794955463021187e-01
3.107566640921347600e-01
3.114628023558486114e-01
2.655479366436909738e-01
3.763565245659346581e-01
2.997196886263686078e-01
3.261230094635596544e-01
3.639968799181269588e-01
3.192614734511343699e-01
2.176240863287511318e-01
3.597469025233633322e-01
3.070946969895498868e-01
5.207383359302134584e-01
1.963610515599959472e-01
3.481594385785466428e-01
3.866356807748072555e-01
3.272107374828324700e-01
3.271827225466410471e-01
2.349203272009126597e-01
3.128372536595888653e-01
2.216078712406632789e-01
2.063188956435978438e-01
4.147630833960657681e-01
2.199995912798699549e-01
2.638476220471470679e-01
2.035271109605313322e-01
4.178732472347956861e-01
1.699442795062856004e-01
3.396505837404971695e-01
2.111657833865928091e-01
2.281872351297079549e-01
3.817237619722147479e-01
3.209468197802316514e-01
2.402739111183392895e-01
3.255188172547922032e-01
1.399132769962908585e-01
3.480539527316340309e-01
3.504952978432516741e-01
3.256109530286885323e-01
4.101648914453227546e-01
2.645819775250538020e-01
2.913995553577344855e-01
2.905198660659392140e-01
4.778216754407698108e-01
3.380255150459594571e-01
3.204795670157631338e-01
3.340532597425510675e-01
3.927603328891987600e-01
4.463594837903388513e-01
4.241622469084859182e-01
2.503992380124966388e-01
3.535954491180399728e-01
2.852397075832862061e-01
3.130893881021668546e-01
2.336015012213165654e-01
3.521657770341988236e-01
2.664798126080636376e-01
3.517036822586122602e-01
4.843094092433126718e-01
4.628190185839698989e-01
2.605093943619838925e-01
2.613713846857981249e-01
3.931165372670721303e-01
3.779001780075294525e-01
3.902744875116024303e-01
3.249523491348259574e-01
2.203787537465408120e-01
3.445979004838639614e-01
4.107336857131596575e-01
2.305997562127706790e-01
2.626696798559378099e-01
3.032649436705878720e-01
2.752637599840867533e-01
3.773010426486424485e-01
3.164990184885977387e-01
2.941912389032749209e-01
3.560761365106359655e-01
3.378197013283604222e-01
4.301845484141011422e-01
3.038551789783904833e-01
3.013059207294954134e-01
3.237202986674468375e-01
4.274458606348993106e-01
4.408373045599791595e-01
3.207389833213608599e-01
3.896193222779245624e-01
4.051687255500194818e-01
2.552780850325882533e-01
3.174460649921300726e-01
3.314936855252119674e-01
3.655846290752871597e-01
2.457424877620228432e-01
2.971474722846404459e-01
3.565900134076128714e-01
2.499909480990267219e-01
4.784439711647465732e-01
3.346274142757953429e-01
3.735061815806527408e-01
3.661058889737401345e-01
3.586564438066615623e-01
3.088727859118743369e-01
2.236658061317423618e-01
3.142930190833283510e-01
2.933488691509537616e-01
2.667412516511288301e-01
2.719169356532734616e-01
2.106356234315435727e-01
2.493219270961661294e-01
3.195632661438334576e-01
3.135429873742102691e-01
3.036666596834054488e-01
2.686596175362976902e-01
3.176345842906860284e-01
4.146969398219031433e-01
2.720065429998224094e-01
3.064749296923761634e-01
3.893852913481511413e-01
5.350519466742020835e-01
3.223387677769791737e-01
4.150407043523027806e-01
3.443384841764817739e-01
3.112843967550333324e-01
4.092425223571079518e-01
4.631826059577309751e-01
3.127245870845434816e-01
3.937418670976394752e-01
4.056094804273590593e-01
3.337684580636152698e-01
4.564379842728215619e-01
4.814327706480492353e-01
5.532926044872737981e-01
5.192419134518713175e-01
4.302872024292424546e-01
3.114040417803674576e-01
4.189352864659811049e-01
4.436351574634449513e-01
4.370928097017630631e-01
3.370676468824733707e-01
3.368603161089784304e-01
5.388934318769504905e-01
3.981626648189412476e-01
3.526459753270147490e-01
3.677378349872505447e-01
5.456960050427263065e-01
5.029135532983655121e-01
5.487890767345913190e-01
5.207210415102389023e-01
4.835411728856505720e-01
4.567548463751519572e-01
5.349391789599222680e-01
3.983395533641717612e-01
5.083031419779950877e-01
4.646328088464462547e-01
4.738839078456068554e-01
4.746010700380367542e-01
4.959083016629111107e-01
5.429132215489672619e-01
5.106545763268367510e-01
4.466828186569595793e-01
5.293098956877528849e-01
6.747552633401995292e-01
5.480966930971001849e-01
7.060242833889573966e-01
5.343338742465255642e-01
6.278546156666652278e-01
5.353828668108281397e-01
7.274014006561759782e-01
5.137587730837017697e-01
7.958664712489829096e-01
5.185257626276308374e-01
6.949164109142881296e-01
7.967833789407865464e-01
6.603965455129995332e-01
7.148430218796698599e-01
7.586434171364664358e-01
7.234909400412813385e-01
7.213331829684627161e-01
7.776493783424071049e-01
7.910080538923595084e-01
6.343849281275575347e-01
7.736181601971617861e-01
7.451051223464936202e-01
8.676536887499088913e-01
8.913528095107091653e-01
9.163159400178457759e-01
8.334231761950110506e-01
1.002602253449214498e+00
9.762153168003246950e-01
1.000421639421398501e+00
9.917853520135013756e-01
1.088314412347883842e+00
1.330970301183574067e+00
1.377248248586056434e+00
1.462119049102302393e+00
1.657657048067729288e+00
1.918445984995207354e+00
2.409829014460268315e+00
2.971583343962739931e+00
4.175928146688663745e+00
8.470246006792386595e+00
1.949222245543744592e+01
3.367934038985544021e+01
4.257697592400133857e+01
4.471073643167581224e+01
4.426655068459179176e+01
4.392607704825936565e+01
4.412830171742997010e+01
4.397772890810964697e+01
4.398580176150761645e+01
4.408816996431380630e+01
4.432361610257756723e+01
4.444296934782291686e+01
4.451623114222139321e+01
4.455537812474856452e+01
4.470213493537951877e+01
4.481134343543487830e+01
4.485092237391836534e+01
4.480371801194907277e+01
4.486561474258268589e+01
4.512642542395353473e+01
4.515946211581828607e+01
4.515246444945783111e+01
4.508833016468928179e+01
4.502471521822080547e+01
4.505699318060202074e+01
4.518338302993578992e+01
4.513929914777484242e+01
4.520764062899920077e+01
4.524620880469768736e+01
4.527676764100706208e+01
4.532971617783827156e+01
4.544226583854830892e+01
4.540880133733995194e+01
4.532567990284056236e+01
4.551871668361592072e+01
4.556207258193272480e+01
4.544493646115229524e+01
4.555265319102407773e+01
4.559121438827022388e+01
4.544406729010423618e+01
4.537733975250971952e+01
4.546267011938002156e+01
4.550682024625520228e+01
4.545337360988762043e+01
4.553917011701439321e+01
4.549548350083464499e+01
4.551652585475579116e+01
4.550537965137641550e+01
4.568680368396177727e+01
4.551124610082310795e+01
4.576503767479650975e+01
4.553945764939264507e+01
4.560536860716288032e+01
4.561702636129768251e+01
4.583377632086946107e+01
4.601290322965339641e+01
4.587532085620271971e+01
4.587204705275940597e+01
4.579644505021137491e+01
4.582395460713309632e+01
4.574996927891201892e+01
4.577064349429664247e+01
4.574431683527456016e+01
4.587001814417748591e+01
4.593629279045890001e+01
4.583389788749789062e+01
4.588692591797944687e+01
4.594522126255414207e+01
4.588899315747177354e+01
4.582157131463687705e+01
4.573389244638645579e+01
4.574734962933862903e+01
4.582623726835340250e+01
4.586429005009073023e+01
4.573511266382264040e+01
4.564963453585748709e+01
4.587867445670888600e+01
4.579663973886212602e+01
4.579013319358502088e+01
4.581313639091776224e+01
4.572129118553640126e+01
4.569753037122762152e+01
4.572773684636821656e+01
4.562920962308219686e+01
4.577682943540420979e+01
4.567268253685733015e+01
4.571610912990855269e+01
4.570276248965677013e+01
4.567282301609845518e+01
4.558843018886063447e+01
4.553795333823074998e+01
4.549125961677809471e+01
4.547035491026221621e+01
4.563488735095812387e+01
4.550769437301235598e+01
4.541443335130951198e+01
4.571907942132936142e+01
4.553319433850693088e+01
4.554754344832129220e+01
4.562450463049560057e+01
4.556274918820056286e+01
4.556180022009364450e+01
4.548444925607002176e+01
4.558841147852121622e+01
4.547542480500178641e+01
4.550792183003805746e+01
4.544185987478745403e+01
4.542323368287376439e+01
4.559514103080008596e+01
4.545512176226556278e+01
4.535315921981357690e+01
4.543927784816196436e+01
4.539943716721687395e+01
4.541697269813678162e+01
4.536461753186025447e+01
4.547684770091271389e+01
4.560550109657991413e+01
4.548673808664484852e+01
4.543332300500856036e+01
4.539942270463151175e+01
4.541868919464803156e+01
4.538942642850008724e+01
4.553926680394788207e+01
4.544333849716267082e+01
4.560456426490537751e+01
4.564939140259937034e+01
4.555474207382644636e+01
4.552774356197116390e+01
4.568864741076946956e+01
4.568983708484650208e+01
4.557727822067176504e+01
4.561021640513453690e+01
4.575659324420087160e+01
4.571605067274560241e+01
4.574885646892496283e+01
4.563524658944727719e+01
4.564063587471138561e+01
4.568415025464155121e+01
4.563517781631401249e+01
4.561347503802893044e+01
4.567875854209026443e+01
4.570005748048451011e+01
4.574076217448983073e+01
4.594413090497003793e+01
4.576900527779521610e+01
4.574370687826192494e+01
4.579930631599081892e+01
4.571843426865250137e+01
4.582290065885657526e+01
4.569312838498167650e+01
4.581599522940530989e+01
4.569509297045980389e+01
4.580934881171246076e+01
4.574504805550687081e+01
4.573333093397249627e+01
4.559958691048712609e+01
4.544876965312817418e+01
4.548143011549658610e+01
4.557249252079228086e+01
4.542983752190489355e+01
4.554862399562231445e+01
4.542051957137434215e+01
4.547134483883723988e+01
4.570478148681567632e+01
4.551873215757110813e+01
4.535374793806695237e+01
4.532282389618848129e+01
4.531238029127668199e+01
4.541803888398568745e+01
4.541912640973450976e+01
4.541430510964555367e+01
4.530407401377323851e+01
4.544595642740825525e+01
4.536792744119800602e+01
4.529575600438118954e+01
4.546217171643680643e+01
4.536270139098525078e+01
4.531105094705716141e+01
4.534268790337345223e+01
4.528105837659249744e+01
4.532585739821199411e+01
4.542660366756449264e+01
4.532232812280295775e+01
4.543798693598569827e+01
4.553106378727952830e+01
4.555455658864389079e+01
4.552484861758623680e+01
4.566172728005785331e+01
4.569675829166518355e+01
4.565443935061916392e+01
4.561750939142534378e+01
4.528285547926020627e+01
4.560714902223246980e+01
4.558160799512832995e+01
4.555709158657753477e+01
4.548704301458097632e+01
4.568039058923695706e+01
4.543547995298558817e+01
4.551208675124492231e+01
4.548934367818458213e+01
4.541932079497036767e+01
4.545434027696440182e+01
4.542152730005969374e+01
4.540072170776230820e+01
4.550395786797089670e+01
4.548333027672764217e+01
4.536508508803364492e+01
4.535325256922926229e+01
4.538507703347170974e+01
4.527174497722443647e+01
4.523781939260928908e+01
4.534154768526615698e+01
4.538142234823644117e+01
4.521236129781283353e+01
4.534713570466485066e+01
4.533691692721605193e+01
4.528271419092533989e+01
4.541522889464719270e+01
4.552583530978503745e+01
4.541148409637494865e+01
4.521245828815889212e+01
4.522302265060159243e+01
4.541073922265827179e+01
4.541940453637475628e+01
4.556645049757916865e+01
4.550236162330823930e+01
4.550887191065339721e+01
4.559677044838348792e+01
4.546067994625599340e+01
4.546983182989530548e+01
4.543456405666041320e+01
4.555295559054067667e+01
4.554578265382467350e+01
4.561044133373435727e+01
4.539290827067028289e+01
4.544572057601360626e+01
4.547210913085407924e+01
4.550351448353257666e+01
4.542933456779712031e+01
4.536917830313417710e+01
4.518398074938048126e+01
4.531378012795834564e+01
4.522452736631372971e+01
4.539519841602643169e+01
4.532458549978190376e+01
4.534491807451020406e+01
4.521432052302704108e+01
4.519205653574740467e+01
4.532592708157536521e+01
4.531914160055988816e+01
4.534138212406421076e+01
4.532500531931021470e+01
4.543736969710870000e+01
4.530147620978010536e+01
4.517937638807235601e+01
4.526940830886918832e+01
4.528334902763604219e+01
4.528234322055340755e+01
4.516509777072026566e+01
4.503798185913891672e+01
4.511803651754869549e+01
4.505522995881464965e+01
4.480574661712279294e+01
4.489149589328769707e+01
4.477955892028686691e+01
4.470714930592664871e+01
4.476328841047711649e+01
4.486538860033673615e+01
4.470766449760656513e+01
4.480761835887007294e+01
4.497042075070248757e+01
4.479766941483716636e+01
4.485668273069911294e+01
4.507982019734190260e+01
4.498323662418481206e+01
4.502069421490850942e+01
4.509480657115040714e+01
4.505274623731417449e+01
4.514144315022038967e+01
4.528307646352380544e+01
4.552333095634711668e+01
4.524811978758390296e+01
4.514746555286267693e+01
4.517525606826553286e+01
4.524414621750383958e+01
4.524370384443617610e+01
4.508592735275940555e+01
4.525549368344130130e+01
4.516179322164207122e+01
4.527735221264444476e+01
4.514841047549539610e+01
4.529880012577833526e+01
4.526658153079679181e+01
4.527308514310403353e+01
4.516074190292703605e+01
4.531131461111300496e+01
4.533631607253067131e+01
4.515682183430503471e+01
4.513001639290575184e+01
4.511929799887149528e+01
4.512290676792933652e+01
4.512739320353953332e+01
4.520310716470513057e+01
4.498686278880001765e+01
4.506433016146903725e+01
4.518869636134387235e+01
4.492152740148243595e+01
4.504170117089303460e+01
4.495191450723095272e+01
4.500191105843072137e+01
4.500225249681287210e+01
4.488191195255081567e+01
4.484527286325833018e+01
4.471398424291736262e+01
4.482563388580869201e+01
4.475810332074218678e+01
4.483251210941865850e+01
4.465959116686473607e+01
4.473013247814191828e+01
4.465758278908216283e+01
4.473931510741409312e+01
4.478039936843829594e+01
4.485876352253736599e+01
4.506515230382783699e+01
4.478962781275659211e+01
4.476910773010560973e+01
4.474165470874253003e+01
4.483409925175708111e+01
4.477413565300528120e+01
4.489924429931392069e+01
4.486089154534449364e+01
4.502618170416197074e+01
4.498856846365634965e+01
4.501310813370319153e+01
4.507303198562831170e+01
4.496195376656809373e+01
4.502889632134483833e+01
4.483733664589004775e+01
4.492240142710191719e+01
4.492145529082579714e+01
4.493910783721392477e+01
4.488194593456901060e+01
4.481927955165696176e+01
4.469909678105817363e+01
4.491270734821194566e+01
4.497190271060074451e+01
4.492286645484775676e+01
4.491213076639429858e+01
4.498535352192423176e+01
4.480854608821434226e+01
4.495987064857269644e+01
4.492818524765074528e+01
4.501624712157776287e+01
4.501534639579676877e+01
4.498005252922860109e+01
4.508409454874379207e+01
4.499546772375372683e+01
4.502736955777564276e+01
4.512015766304201492e+01
4.510117061445183140e+01
4.508048709446686075e+01
4.494556067876342809e+01
4.507871739991464466e+01
4.484647497717816833e+01
4.496092257410956705e+01
4.499010817275697605e+01
4.504292826564825702e+01
4.485122093023241518e+01
4.495702778972404445e+01
4.506065828294342879e+01
4.502841855033656060e+01
4.509569293548126012e+01
4.500140668840377600e+01
4.515451307974616668e+01
4.500298573978336236e+01
4.501989199652970086e+01
4.507955956739282044e+01
4.508205269463039144e+01
4.502481827678447246e+01
4.522050656527450485e+01
4.519462268387241011e+01
4.525367483632783916e+01
4.533242047904813887e+01
4.531366655115311204e+01
4.534856112899810654e+01
4.525988272415671787e+01
4.525144668792912483e+01
4.533835276865692521e+01
4.530100238311649719e+01
4.531619467177740290e+01
4.535078189439543195e+01
4.528599102847657321e+01
4.531762636660617005e+01
4.526382312131296004e+01
4.509456576404880934e+01
4.525844374746984755e+01
4.530691737830601085e+01
4.520973305159559885e+01
4.523894959815297057e+01
4.530419467016687207e+01
4.539550405192493798e+01
4.532436006549520613e+01
4.530337778692961592e+01
4.535409362420175938e+01
4.536279140288259271e+01
4.537439838626267630e+01
4.513712500651618598e+01
4.511132041648928492e+01
4.514729584504191706e+01
4.531606349713847948e+01
4.507569795592900164e+01
4.509968481135036455e+01
4.505141739877723239e+01
4.501432177724144168e+01
4.483033382154516033e+01
4.490365791631234060e+01
4.487587963848430661e+01
4.497489019530595300e+01
4.492189452864954546e+01
4.501579180297339633e+01
4.504050583314455025e+01
4.484799132364455687e+01
4.498640109857459635e+01
4.505242148653203316e+01
4.503294705892191274e+01
4.489517009796033875e+01
4.508335361936212848e+01
4.504445411898311136e+01
4.484720205079519673e+01
4.491625260325962188e+01
4.492555214686285581e+01
4.501282201724283993e+01
4.500190893455219054e+01
4.506639810891871178e+01
4.510947345329879710e+01
4.500959918682876548e+01
4.518151037795932723e+01
4.494793416097493832e+01
4.506819389680216403e+01
4.500965956559220871e+01
4.504289135065383931e+01
4.502507880559750220e+01
4.519110716309222653e+01
4.522933015833740455e+01
4.520273700342628587e+01
4.506079542466050469e+01
4.526590583475953622e+01
4.538579783659712064e+01
4.539236728906398355e+01
4.532009046753228176e+01
4.526161125596856749e+01
4.523806475087777557e+01
4.545329755489087376e+01
4.531026814697689531e+01
4.532555216686171207e+01
4.538193895583173543e+01
4.536933577338422907e+01
4.517492787882481764e+01
4.511239277169157447e+01
4.522669149501465569e+01
4.510053193454030662e+01
4.511936606404827899e+01
4.514993541859689685e+01
4.501320653996720722e+01
4.517701281728685814e+01
4.518085581954341023e+01
4.505373444656547832e+01
4.518503661925808501e+01
4.530054443495357219e+01
4.529188094170224588e+01
4.513498747683300394e+01
4.512016646195520764e+01
4.514457293462641019e+01
4.508187964929126679e+01
4.510499389500491674e+01
4.518537370874942383e+01
4.513282506746119793e+01
4.497600947805856464e+01
4.497516731058343709e+01
4.528135126923380227e+01
4.509647563442636908e+01
4.503766307543463654e+01
4.500828956431232086e+01
4.494135439253777520e+01
4.508005028393016289e+01
4.498623260439315175e+01
4.495164032492544237e+01
4.505455294799266142e+01
4.511388029412079703e+01
4.508301703555989093e+01
4.476638441514388234e+01
4.489708118198593212e+01
4.502676799512691019e+01
4.477726766242570022e+01
4.484379687044177842e+01
4.491025356325300066e+01
4.490531170790403337e+01
4.492317674304703701e+01
4.491546889294394163e+01
4.490974605798064090e+01
4.505028041706042075e+01
4.509378195259559163e+01
4.501593349585768067e+01
4.499215983715649259e+01
4.507687296515085507e+01
4.498740943407879911e+01
4.500298371704391087e+01
4.498193165397202620e+01
4.503545768285501083e+01
4.496720024644412206e+01
4.488774077904704995e+01
4.494326244245134916e+01
4.492188127971108003e+01
4.479371061075512017e+01
4.483741715091564828e+01
4.492186246823307982e+01
4.494805946966950216e+01
4.487626729645691626e+01
4.489038824128585503e+01
4.495202990450247427e+01
4.489693807318379726e+01
4.488016986838844957e+01
4.485685911355568578e+01
4.481357451680428028e+01
4.486405086174731593e+01
4.476047498248384215e+01
4.475901547499746158e+01
4.466225420419507941e+01
4.475082965161298176e+01
4.478492929293869196e+01
4.469199069587432405e+01
4.478469202563039886e+01
4.462917645072615613e+01
4.476437391348577677e+01
4.479959324211451133e+01
4.489238245989135123e+01
4.481013494987996637e+01
4.482956902384417219e+01
4.472790139676753540e+01
4.473599022980987883e+01
4.493706790469998680e+01
4.478170504660807438e+01
4.474605123359542347e+01
4.471276260955991688e+01
4.481872977113587098e+01
4.486012381467411814e+01
4.480292064814776154e+01
4.486238109051652145e+01
4.489340647162549658e+01
4.466463041710768067e+01
4.469247979421857053e+01
4.470826080113420886e+01
4.461216430357930562e+01
4.471960138975289567e+01
4.472722145297648666e+01
4.468225494855335000e+01
4.452476720290281520e+01
4.460775584457057619e+01
4.454312720233064482e+01
4.461318224709655311e+01
4.470512454395964141e+01
4.455852520357690594e+01
4.452560997720350855e+01
4.451221883668772961e+01
4.454552546310204519e+01
4.445603947962159452e+01
4.448167840730480549e+01
4.459313791271100769e+01
4.446203386732761231e+01
4.450896252993748448e+01
4.451986944327212825e+01
4.480244439419709579e+01
4.475928379135550017e+01
4.443341170269120255e+01
4.464179804010376529e+01
4.458528715607944548e+01
4.469912338007855368e+01
4.467463690807206689e+01
4.468570483144727490e+01
4.469386769673920412e+01
4.465596318178400281e+01
4.469458526348297767e+01
4.465560283079103243e+01
4.480773021634873032e+01
4.491582813142594688e+01
4.488516188767020765e+01
4.496986520537869580e+01
4.502486318159444068e+01
4.510840392993332415e+01
4.485512653627217361e+01
4.487102091771988910e+01
4.486221917024068517e+01
4.487200123828705500e+01
4.499258724195220083e+01
4.505326355287331808e+01
4.501468324074105709e+01
4.491851928483521306e+01
4.489665296808949080e+01
4.486448069383292392e+01
4.485554686148556414e+01
4.485106062814956829e+01
4.489242513968945758e+01
4.491559177435048156e+01
4.482685926123522080e+01
4.472365880237473590e+01
4.476533855782744098e+01
4.472168167591483012e+01
4.478111248515111242e+01
4.494033078535191805e+01
4.481099198448863064e+01
4.497518561637064494e+01
4.477106938260580193e+01
4.486553272050704066e+01
4.483703768503468012e+01
4.465763760531904580e+01
4.462792791493902911e+01
4.472265127596743639e+01
4.470622016066010218e+01
4.471913787906066062e+01
4.463554555087245035e+01
4.461939913611839614e+01
4.479535388410371155e+01
4.469642100046792876e+01
4.471390515380959130e+01
4.476903622627312274e+01
4.481797913261291200e+01
4.466920049298116169e+01
4.465466903322497672e+01
4.485796514736753693e+01
4.465711452495504119e+01
4.464653044080399980e+01
4.475104224150528154e+01
4.482607039293380069e+01
4.481215890275204572e+01
4.476188948403100198e+01
4.488636673228951679e+01
4.496074275259097419e+01
4.508123864322995189e+01
4.514402032227188499e+01
4.502209000611279066e+01
4.500062874289618975e+01
4.495503569499473429e+01
4.508567683650707636e+01
4.500949784759581007e+01
4.522786407694297850e+01
4.523736731039127079e+01
4.500937658437617017e+01
4.490364001507097669e+01
4.502062847588065608e+01
4.492093837981683180e+01
4.491102746328161288e+01
4.503014313780453648e+01
4.481293431983533537e+01
4.487918034435647030e+01
4.485541194477625027e+01
4.482091321699846986e+01
4.488849394599936460e+01
4.493925529490392279e+01
4.471186855882452704e+01
4.471453746209503777e+01
4.470109312353785214e+01
4.465627761659745687e+01
4.467707218496348531e+01
4.483194109013552264e+01
4.475718428917201663e+01
4.458681543670360270e+01
4.466333616741351165e+01
4.458947614788484515e+01
4.459824664404159478e+01
4.436087708304436461e+01
4.449525746029652140e+01
4.473934625759977024e+01
4.479641521537833881e+01
4.475154580243563629e+01
4.455423831119297517e+01
4.434458715493872205e+01
4.438459744257145445e+01
4.442719461139847681e+01
4.434778510566192011e+01
4.456837381974352752e+01
4.459483853071592563e+01
4.447993895270417397e+01
4.445430386822669533e+01
4.445658845104870949e+01
4.461844136909422076e+01
4.456621100582573547e+01
4.448924456452687082e+01
4.463602362528721557e+01
4.462364698963152421e+01
4.472533251794732223e+01
4.473929316069652629e+01
4.495089201254556599e+01
4.496918404794065793e+01
4.488720465201273413e+01
4.491392463267754209e+01
4.484480237410972592e+01
4.500027931469291786e+01
4.509949214544084128e+01
4.514509298088450606e+01
4.501781777858890621e+01
4.502248615959169342e+01
4.492541652219441062e+01
4.495486072805167055e+01
4.490580212103063928e+01
4.494810002559550810e+01
4.483601923583297832e+01
4.469846214662236150e+01
4.485937358069136138e+01
4.475292106283539795e+01
4.466407396154394149e+01
4.464694206823443778e+01
4.480745310107353419e+01
4.473133600797921616e+01
4.459134091118053789e+01
4.456776467182737633e+01
4.462147214041561227e+01
4.461430476623056052e+01
4.460237920142411383e+01
4.457635696465977304e+01
4.455212009867180711e+01
4.461530076302700820e+01
4.450408246927900535e+01
4.467142489931006821e+01
4.463441999762704171e+01
4.472055986473933586e+01
4.459964263752195990e+01
4.464974416888601638e+01
4.455571582106308171e+01
4.458961905441159956e+01
4.457040667266744549e+01
4.469305354420055920e+01
4.463108783816103653e+01
4.465777393794121508e+01
4.452762341183486683e+01
4.455348049194217452e+01
4.451567337187727702e+01
4.448539377471989553e+01
4.444238204548564397e+01
4.461933370050364545e+01
4.470617667177053534e+01
4.477991977696718351e+01
4.464266448045092517e+01
4.471877661783452140e+01
4.474798163477972679e+01
4.484300496803273006e+01
4.476153398760873614e+01
4.476025005388503075e+01
4.485422216956155239e+01
4.466338916317690177e+01
4.463490312889710054e+01
4.447034762896617366e+01
4.450024856934137318e+01
4.452606934128117189e+01
4.465966934573681613e+01
4.464946422178113750e+01
4.465701591641392554e+01
4.469759479604120855e+01
4.472003557072846291e+01
4.473280734849189599e+01
4.473343126240772705e+01
4.455306259401139357e+01
4.452902355192104977e+01
4.442971484333988030e+01
4.463615500220200971e+01
4.472219514826823428e+01
4.476800108947076495e+01
4.460822431097202667e+01
4.457903942028676170e+01
4.461797644247932482e+01
4.474415370192726016e+01
4.472052193837804168e+01
4.466591991336520806e+01
4.470177114572703658e+01
4.472955893043052811e+01
4.470232527513997667e+01
4.467580686044167493e+01
4.473093054990124529e+01
4.458093341216191163e+01
4.444137553044636491e+01
4.446710588594236668e+01
4.459574694290500219e+01
4.462508222425449844e+01
4.448101767953291130e+01
4.465366241704867178e+01
4.466039874550151012e+01
4.459683750276185776e+01
4.461661625148556709e+01
4.453384141335908453e+01
4.457007453888705584e+01
4.449310061345392597e+01
4.436174574840689644e+01
4.459298155496856708e+01
4.455568679475575067e+01
4.465759077890512430e+01
4.479626431903121642e+01
4.465023721157505321e+01
4.477735686522737524e+01
4.474714705257197522e+01
4.477098109004305826e+01
4.479666249524585453e+01
4.482700065070713435e+01
4.490558882317776579e+01
4.474902081705612744e+01
4.471189505670288611e+01
4.486944419248830940e+01
4.482804114776577364e+01
4.497043177463543628e+01
4.512350539760256396e+01
4.510739933649348643e+01
4.485854901104571724e+01
4.465880553494833549e+01
4.478161665290289051e+01
4.482158759825481553e+01
4.489852774394326929e+01
4.480720127004109088e+01
4.487720645428225197e+01
4.488744647048962122e+01
4.495875682721847255e+01
4.513448492727631844e+01
4.489749220259485440e+01
4.477297257794784713e+01
4.473365204439825504e+01
4.460769738740540191e+01
4.486515285007939724e+01
4.492911570769617668e+01
4.476383455007582057e+01
4.495490007032928048e+01
4.500022692574865602e+01
4.485693951743825636e+01
4.473873356988759298e+01
4.473801256448988539e+01
4.463745076895365571e+01
4.478590273619273887e+01
4.479415551224817449e+01
4.473787137728978536e+01
4.483952636224372412e+01
4.483316818488825817e+01
4.466778690167382138e+01
4.473545208003588414e+01
4.475182757001060452e+01
4.481028443030745478e+01
4.481953664181396135e+01
4.480483567651062060e+01
4.491195600172476077e+01
4.481886458670858531e+01
4.489571259662013603e+01
4.475767682617609466e+01
4.471367628087212154e+01
4.478733422874580583e+01
4.486980575712940578e+01
4.491311664949354565e+01
4.482764671361491793e+01
4.464825826465038006e+01
4.481304101933228878e+01
4.458832824337179090e+01
4.457292447732240248e+01
4.465319415291520500e+01
4.474870587656001675e+01
4.468453639613153427e+01
4.465358666546400457e+01
4.486243074876311709e+01
4.476630987720391630e+01
4.466710908175700467e+01
4.474432351088335480e+01
4.480837992019135640e+01
4.460626720963409042e+01
4.471749379661940083e+01
4.483991472817520219e+01
4.500313886114177819e+01
4.503150100264925726e+01
4.490226263078888991e+01
4.491045189283305206e+01
4.490954267154874202e+01
4.492551472618444564e+01
4.496672045269650653e+01
4.499059150629472725e+01
4.496754047117983077e+01
4.506788441770343212e+01
4.509743289576728387e+01
4.515801140724239104e+01
4.510375941725416027e+01
4.497551835697446876e+01
4.496726942412654893e+01
4.496585654077591698e+01
4.501017576864168035e+01
4.514652770982184649e+01
4.498510725342332250e+01
4.495176836432220568e+01
4.494259726465688942e+01
4.470079487063770074e+01
4.487422827417790927e+01
4.482197566077689999e+01
4.479901483983263688e+01
4.481835708143528052e+01
4.506277558523137827e+01
4.498264881616605493e+01
4.487469583034992837e+01
4.492519351519456450e+01
4.490054663996716044e+01
4.478224430888663932e+01
4.491632704006132570e+01
4.509232052350427011e+01
4.508294623968484416e+01
4.505823989592353485e+01
4.511470840356242462e+01
4.527527748901859184e+01
4.513901171653007083e+01
4.526924760223661082e+01
4.522551951990764962e+01
4.518161262742563622e+01
4.527619621717306586e+01
4.519049771176249664e+01
4.539395038591975862e+01
4.541662620290878039e+01
4.521257297747427373e+01
4.522440023715663671e+01
4.532862491002263283e+01
4.547874017573348482e+01
4.534547190051106469e+01
4.535395183018001575e+01
4.549972124065740786e+01
4.545668351922311246e+01
4.539844916023968580e+01
4.530183736986797527e+01
4.533449742768961244e+01
4.535815750958423109e+01
4.531685307339572688e+01
4.524110138814518223e+01
4.546990687351951976e+01
4.569292247012840846e+01
4.525216273761792962e+01
4.513672460528730568e+01
4.530832874460339355e+01
4.523838110728884487e+01
4.527417904047850072e+01
4.517118621579943749e+01
4.539647800086341789e+01
4.524338910621447241e+01
4.518169899839402603e+01
4.515838480490408102e+01
4.534656326946372928e+01
4.520589814029163023e+01
4.515529527300955692e+01
4.547478450689742857e+01
4.571760585580240388e+01
4.567749989260682497e+01
4.586863388258628760e+01
4.578090818791967820e+01
4.573815810000983362e+01
4.582674133496944080e+01
4.587225215851872662e+01
4.597038262150268650e+01
4.594377995971455420e+01
4.586078332823085191e+01
4.589783080857408493e+01
4.578247570968660796e+01
4.586938057677319591e+01
4.577464781000963256e+01
4.572896960478927753e+01
4.561762236140987170e+01
4.566819873081143299e+01
4.570363398685206135e+01
4.565921382429336717e+01
4.572605433187359836e+01
4.572104926592607654e+01
4.574406156558224268e+01
4.561417652399723011e+01
4.557853595992337858e+01
4.555194159136635790e+01
4.570251713138567595e+01
4.572714954403188159e+01
4.571353539651239117e+01
4.564893345443401529e+01
4.549632708423197869e+01
4.549178552897906513e+01
4.568962591087348102e+01
4.565945564276842106e+01
4.559738738385271262e+01
4.558006676897209530e+01
4.582622877285021445e+01
4.593180200596161455e+01
4.580255604883041087e+01
4.573979894606916474e+01
4.568166248766487314e+01
4.579460830185520592e+01
4.564822043886079683e+01
4.599911977886119985e+01
4.577958430509589505e+01
4.584009910028751733e+01
4.582814552054017554e+01
4.566397231832907977e+01
4.558211256742767148e+01
4.548778687693413758e+01
4.549308857758952485e+01
4.543206870441139955e+01
4.554657020734327944e+01
4.545000271496031985e+01
4.562002830858333624e+01
4.546666250093438322e+01
4.546200888593036638e+01
4.552364963890772742e+01
4.551379525793756642e+01
4.550115020478320815e+01
4.550255732332735192e+01
4.551226778640986481e+01
4.577791453386609533e+01
4.580142179781307732e+01
4.568641764417992590e+01
4.562282504898144708e+01
4.595983100231391916e+01
4.554119619375945405e+01
4.547551896351006917e+01
4.557638245060236670e+01
4.559875940786717052e+01
4.552329373794267298e+01
4.535710133629504526e+01
4.554175244704866543e+01
4.538939780674096625e+01
4.546244063961714943e+01
4.510640869995716429e+01
4.532540116937768460e+01
4.537013303605220926e+01
4.527690275998532599e+01
4.519555547006382312e+01
4.530690473618616920e+01
4.535847204553343204e+01
4.504090532414297599e+01
4.525082823540876120e+01
4.533756673219705391e+01
4.529660403779829636e+01
4.535572476111441631e+01
4.534674561940054360e+01
4.538121825384748576e+01
4.517377825498508770e+01
4.523590962336758281e+01
4.534364981701438069e+01
4.538079256837314546e+01
4.535243032572968502e+01
4.531384748517880467e+01
4.527819700968104399e+01
4.526439424173033643e+01
4.517065797744992750e+01
4.517841851991526880e+01
4.533363847147691672e+01
4.552161911213283219e+01
4.547778716214652661e+01
4.543664060075404620e+01
4.542595183984693819e+01
4.540507777782925558e+01
4.544030863607052595e+01
4.528615628627179035e+01
4.537412744034333656e+01
4.539362249988965203e+01
4.541218446983486956e+01
4.533081462637256465e+01
4.551046319960219932e+01
4.531079587963959199e+01
4.536856955976710282e+01
4.528602126842801567e+01
4.516870380908129334e+01
4.517446103060939322e+01
4.504878348888941986e+01
4.493430403382061655e+01
4.511419928009494384e+01
4.510674730650590902e+01
4.501647457860024559e+01
4.491529392600072157e+01
4.494695303131447872e+01
4.503239110904785747e+01
4.510862198122200795e+01
4.516223185264345830e+01
4.486277451329475241e+01
4.490877999772260409e+01
4.520849210107874683e+01
4.503749973924324479e+01
4.514865229397118895e+01
4.514194549750880725e+01
4.521565937412635350e+01
4.520661095359553627e+01
4.523072210633709034e+01
4.533096906251598313e+01
4.526062506945373087e+01
4.536735561281570028e+01
4.550914852024380508e+01
4.560523611774191721e+01
4.548633293197232064e+01
4.564547993061712106e+01
4.545076569219955331e+01
4.549525260515118674e+01
4.547989687916007284e+01
4.550220769285343891e+01
4.550600164368499634e+01
4.557537866625919776e+01
4.554655827318327255e+01
4.550883024222392237e+01
4.550724754991623655e+01
4.526243703925376138e+01
4.552939775811452705e+01
4.552112849673456196e+01
4.552007040184676612e+01
4.540530725759293063e+01
4.533589170183697803e+01
4.534135552504326228e+01
4.529344836232782967e+01
4.534690450556995245e+01
4.531321891896111254e+01
4.537205241330455152e+01
4.546268003080445652e+01
4.541830537987718941e+01
4.534183895971855094e+01
4.536928904810497443e+01
4.524834289571968071e+01
4.515928896934070025e+01
4.530757952198881355e+01
4.530458758726044977e+01
4.543818698489356223e+01
4.538938819872673491e+01
4.535934091316632788e+01
4.532007640949689886e+01
4.520060756469911212e+01
4.520259561395103276e+01
4.523143522305640118e+01
4.508406117354577702e+01
4.515797307633452107e+01
4.522050343003215289e+01
4.523057424410377081e+01
4.527891922872240826e+01
4.534561389680521870e+01
4.525110889047679308e+01
4.540258636992133034e+01
4.537954231325754506e+01
4.540077733309368568e+01
4.560128520234460581e+01
4.555526636783694272e+01
4.545816638935232845e+01
4.542891909715789467e+01
4.556736224728575024e+01
4.542832107430543687e+01
4.533473267226077752e+01
4.527258330150056764e+01
4.535578493760469598e+01
4.551707462391104286e+01
4.533828854668683306e+01
4.556122212122042470e+01
4.535006230491828205e+01
4.528165569148601577e+01
4.531621459575505639e+01
4.521605259462900506e+01
4.550317324742439951e+01
4.543560475599351633e+01
4.544064936649510145e+01
4.546724231913336212e+01
4.529176756716751129e+01
4.525468256501155651e+01
4.545995024307866572e+01
4.532727442817782304e+01
4.546132975123214237e+01
4.536562222643544828e+01
4.549936018170292584e+01
4.535510013923849471e+01
4.537509259036684028e+01
4.536606965634923228e+01
4.544575445689572746e+01
4.540017091587222353e+01
4.540481785583785523e+01
4.517903151103332249e+01
4.493972993066113020e+01
4.507325458807769536e+01
4.524895679707682206e+01
4.517813857280160050e+01
4.504941185283169602e+01
4.511338644233834572e+01
4.507389347026639115e+01
4.521998995767904006e+01
4.524870425808012442e+01
4.510066877285020581e+01
4.534063209235790026e+01
4.538390475495260290e+01
4.534071795764064206e+01
4.525054009620750151e+01
4.520753939090182882e+01
4.517371908985916207e+01
4.517706803806305516e+01
4.534636281600587182e+01
4.541500103307438252e+01
4.533894988127721604e+01
4.525326846801828395e+01
4.527920605314336200e+01
4.512461669053600133e+01
4.515193954862655801e+01
4.530617007729671997e+01
4.517030399808460572e+01
4.541585887677763367e+01
4.523336693901921279e+01
4.520564034217832017e+01
4.531867687622465013e+01
4.532628652233886868e+01
4.542545849374954514e+01
4.540062188557812561e+01
4.549759170079585857e+01
4.532310910241717039e+01
4.529608914952850540e+01
4.526845084525736951e+01
4.526884366121468162e+01
4.538906091952205202e+01
4.538843478058972636e+01
4.546638609361839656e+01
4.541830962762809776e+01
4.542046293467671347e+01
4.527577740901582359e+01
4.537219633119697448e+01
4.535820372917772403e+01
4.529404780110011330e+01
4.530098994326932882e+01
4.517839242657570509e+01
4.514598419978729993e+01
4.534279460286722951e+01
4.531834666404434131e+01
4.514257315349028943e+01
4.521482165667489994e+01
4.511970598537472199e+01
4.512327409737276440e+01
4.517379079596771874e+01
4.490547130202899950e+01
4.494787499584987245e+01
4.509856522518873589e+01
4.513635403945881563e+01
4.511707682892481586e+01
4.500083728731284083e+01
4.494990461239250124e+01
4.511143035236575116e+01
4.498690395154319077e+01
4.511137796342289619e+01
4.509809170193648242e+01
4.506357598314636448e+01
4.520009854237640212e+01
4.535955380647215662e+01
4.534175956720308420e+01
4.541607915308337340e+01
4.530799044146655774e+01
4.543486969255985031e+01
4.550475401813044130e+01
4.532216114568145571e+01
4.529669415083125017e+01
4.525147126421063604e+01
4.520017024848051079e+01
4.523178748309167219e+01
4.527377985288989493e+01
4.528428110587289268e+01
4.528937304846913747e+01
4.530190563732038811e+01
4.519667728124444039e+01
4.524135129757618046e+01
4.511709756200183818e+01
4.521531823915344717e+01
4.511631445850729705e+01
4.496411617594312560e+01
4.502712480632722958e+01
4.494648739673699112e+01
4.446968386708932286e+01
4.359771021416798220e+01
4.157091185349624851e+01
2.882826729911207764e+01
5.230429438709528478e-01
2.707781334670599227e-01
1.514331814542412280e-01
2.440921348225102427e-01
2.128385887243238739e-01
1.112021118213524229e-02
9.330269012716585486e-02
9.115656380511139023e-02
7.632907616445827603e-02
9.055945118796238091e-02
9.084920858033851410e-02
1.174896955955329059e-01
9.358546907135101289e-02
1.738636401726524339e-01
1.055061793053220232e-01
1.168099540747453702e-01
0.000000000000000000e+00
2.586925699850757820e-01
1.298694664953188305e-01
2.124640785586724423e-01
8.702127572596718430e-02
1.306130254308311978e-01
1.569988495793620542e-01
4.250847170884253234e-02
7.629610551606635926e-02
1.415558423890361794e-01
2.240330344415937258e-01
6.569685081794462977e-02
1.098976473092000417e-01
1.348599687176855744e-01
1.896885405287077053e-01
1.456374267403290901e-01
2.874763514871365722e-01
1.205032736300489793e-01
6.971259501013482573e-02
1.651660637644115637e-01
1.858895328471712460e-01
1.385524791813249612e-01
1.064879157916081009e-01
3.301439116412911434e-01
2.473634098423136418e-01
2.141903853544062097e-01
3.140331982325988425e-01
2.246674665960438633e-01
1.935246654733477900e-01
2.015547379394357908e-01
3.270963515797127297e-01
2.034457968448027398e-01
1.756630689854607463e-01
1.574474931385847487e-01
1.321855029089774591e-01
1.553190657851329926e-01
2.343223043490613167e-01
2.557781061682218859e-01
4.099151842709902738e-02
1.304377550823601073e-01
2.172730399396806122e-01
3.380878154155030901e-01
1.132782513807680802e-01
1.736282944604032319e-01
5.276295050371582196e-02
2.986910245892525073e-01
3.398016823639163353e-01
1.477208481454554967e-01
1.464096074413784310e-01
1.692037546723948460e-01
1.341737544380422475e-01
2.307838254756535701e-01
1.104254811094691480e-01
7.935833043523266017e-02
1.705722388972990000e-01
1.656081334202669786e-01
5.676322074137640783e-02
9.694008094799821951e-02
1.439087937972675091e-01
1.305178555557794384e-01
1.601567500610516781e-01
9.772419580726521282e-02
1.824439988425850534e-01
6.683593618975789408e-01
1.814882545563433203e-01
2.068296372976229924e-01
1.874900252584038030e-01
2.808466213903357267e-01
3.581278009095256731e-01
1.686897766337008275e-01
1.503183487297511389e-01
3.073461234768242734e-01
1.121182104346851727e-01
3.175414371489872489e-01
1.938370775476898622e-01
1.788392752630790783e-01
2.158110040212671277e-01
2.473481381586422612e-01
8.152943758595698753e-02
2.280802322243383196e-01
2.156065050867637112e-01
1.734916584279043716e-01
1.334322182336314944e-01
2.158492337951322670e-01
1.740130194628741189e-01
1.648309970056982543e-01
2.015593902392135428e-01
1.591429531601443736e-01
2.972447660390324375e-01
2.749135226838066437e-01
1.646188116656037703e-01
1.542853449020956669e-01
8.177691973085354782e-02
1.688560457982207219e-01
3.928978791614501365e-02
1.647539306421292871e-01
1.399237952413386887e-01
1.135044947642421809e-01
1.505484353126435026e-01
4.262123942428641676e-02
2.414639897425067683e-01
1.480395307121413762e-01
1.223506413707291518e-01
1.814463838509685623e-01
8.949650171982403979e-02
8.075938076052258108e-02
2.175203197940034361e-02
1.811239592216123406e-01
1.520898637422631872e-01
5.759952226762843353e-03
7.665777127474293628e-03
1.007362567968324019e-01
9.048309277892141456e-02
1.353289408109263903e-01
1.136303091470350912e-01
3.400153847376263805e-02
5.368653319527183498e-03
4.556786479383023725e-02
1.009897060161388804e-01
7.168941805929551769e-02
4.997966132776399117e-02
6.196034577929421250e-02
1.462348427736254175e-01
1.086798571574567607e-01
2.253867526298536372e-02
2.248670098239365922e-01
1.235922998437182230e-01
1.969944723501374506e-01
6.516921928822483334e-02
1.023142968020818167e-01
7.565803242521573768e-02
2.816437829185817199e-01
1.040048011137715278e-01
2.001792752617601590e-01
2.023169060800376062e-01
1.855342386981767566e-01
1.101879103923870673e-01
1.415894198590094133e-01
1.651975173558988264e-01
1.047820386626044931e-01
1.427723177616417871e-01
1.624451760855137872e-01
1.839311167204410458e-01
1.016911919838012768e-01
1.530486421371123340e-01
1.942181616192711346e-01
2.229820191374942695e-01
1.992756165111916333e-01
2.110622191337221953e-01
6.433089501666111598e-02
1.251152202101222244e-01
3.316111055398907603e-01
4.995407367572635149e-02
2.233142540572168322e-01
1.951721865720051352e-01
3.194611178130592477e-01
2.999051738129780431e-01
2.456742203127891266e-01
1.587974692980993474e-01
2.574816571475699312e-01
1.599265623355867749e-01
1.020897727500982288e-01
2.717179992499882402e-01
1.635641554288309596e-01
1.988131171904712335e-01
1.105791081694007527e-02
1.905758150870160428e-01
2.879520997507226121e-01
2.351338273255778044e-01
1.812143756667351502e-01
1.036801514687138992e-01
2.033783384903389280e-01
1.115536639151262222e-01
7.104305173676839225e-02
2.945443080344725129e-01
2.681567645650093645e-01
2.390347810654773197e-01
1.734849833835938604e-01
2.641546738615168088e-01
1.968094928474287686e-01
2.582453423435238649e-01
3.360438374218157609e-01
1.671237719242711361e-01
2.603680048865915642e-01
1.924429045366379265e-01
2.389821898487750618e-01
1.736247546695250388e-01
2.130583593421098709e-01
2.391851717262948318e-01
1.107363761295455662e-01
1.313369638085123414e-01
1.068906431753346986e-01
1.693151064645778692e-01
1.462345393615155364e-01
1.243057199720817296e-01
1.365978051276669492e-01
1.315360013459065947e-01
1.885398269211242539e-01
8.239688930214594809e-02
9.332079364423950807e-02
1.359208954471140540e-01
2.293696273458774026e-01
5.471539954695114893e-02
2.532043727711417724e-01
9.631616703083345499e-02
1.323884847944165610e-01
1.052032741034901742e-01
2.394670404390395468e-01
2.266780693891409237e-01
2.509018887103637296e-01
1.427502699038212253e-01
1.384647934347942311e-01
1.537046164685115235e-01
1.439987045562389767e-01
1.514154824828457535e-01
2.911178889193429820e-01
2.244603380989192432e-01
1.975681211930357950e-01
