-1.981520758954558037e+00
4.372723278101559030e-01
8.397454499281143958e-01
8.224405112774368920e-01
7.144863118185155182e-01
7.106389606697185446e-01
6.637566187838839227e-01
8.073717108470955806e-01
8.860108563474609067e-01
8.295332463851474714e-01
7.733802860650187405e-01
8.233759270351740378e-01
8.028738467617584362e-01
7.826903479172727662e-01
8.176979968820812239e-01
8.254552018266740898e-01
7.743174211501296922e-01
6.948910255411810954e-01
7.783065663203065920e-01
7.589121380482953816e-01
8.060524803202697708e-01
7.679205083399400777e-01
6.722812509912907686e-01
8.117048228216343642e-01
6.213512056332975986e-01
7.583192731774047735e-01
6.405598453114025315e-01
7.147818340176275154e-01
6.729627118372802919e-01
7.096940380369092249e-01
6.623922811736134841e-01
6.857058678410545838e-01
7.595094529411940965e-01
6.354313922694806438e-01
6.320937714079171155e-01
7.939720748270120421e-01
6.897019914591900891e-01
6.555075848006016725e-01
6.485459231956458570e-01
8.740846847185538282e-01
6.146704013719639370e-01
6.814685325677309891e-01
6.939050413019580699e-01
7.607603148817256855e-01
6.090550750018453030e-01
5.946442716410690332e-01
6.900244160927384574e-01
7.463513319849174321e-01
7.619351218222214506e-01
8.167614686194831775e-01
6.606191479689236257e-01
7.489211210360487980e-01
7.283002048327683609e-01
7.343463746648339896e-01
7.078325111279789583e-01
8.397930854368104159e-01
8.190864050873302160e-01
8.068196041735355983e-01
6.825167160343131867e-01
7.527265003486203199e-01
7.563696559712203005e-01
8.123634267150313670e-01
7.223072330464402890e-01
7.946747744355083798e-01
7.765657969400965310e-01
7.960462927696416724e-01
7.170276813870002375e-01
7.501378998202217208e-01
6.791771735704005275e-01
7.880464602558365783e-01
8.229409369647253669e-01
6.204830459595531700e-01
7.015874048904563454e-01
7.637688360716419211e-01
6.943155562322168572e-01
6.534589545073696826e-01
6.641128231622229761e-01
7.515894174942074901e-01
6.462921871477276259e-01
7.337041549588821931e-01
7.713103158741592136e-01
7.859121669553276179e-01
6.641691564506781997e-01
7.203907887652518660e-01
7.386155680789715516e-01
6.441947077027145863e-01
7.016847997885067301e-01
6.565398897661228750e-01
8.770136111187960548e-01
7.295017119382386506e-01
6.825248069931889594e-01
7.200240661452016466e-01
7.448512685722696869e-01
7.250578549885189350e-01
7.025756141456904746e-01
8.053130679943462100e-01
7.546139183256598271e-01
8.423582221887067067e-01
6.511409964884908863e-01
7.936907117977801684e-01
6.943388177325040544e-01
7.294400183910538793e-01
6.770963817229260773e-01
7.268349325364414915e-01
7.487163186916091506e-01
6.906180900567666647e-01
8.408368188764909767e-01
6.513711842142656527e-01
6.821612196150805829e-01
6.987619416017541996e-01
8.191710567254073538e-01
6.628662089764917331e-01
8.285621292810456673e-01
7.883185186793778554e-01
6.258097274440213020e-01
7.425921722637586209e-01
6.722607201879676753e-01
6.277959562298738305e-01
7.133296083900463325e-01
6.034957785033362443e-01
7.347313019380847798e-01
7.546767243780175827e-01
5.966379845609541821e-01
6.308169172655558876e-01
7.688010067236339395e-01
5.970066287842853425e-01
7.414342551941446313e-01
6.459065519146691692e-01
5.895063117227553606e-01
6.751141984174423571e-01
7.134571421027765536e-01
5.515581056022035300e-01
6.265780649392863610e-01
6.490936809808397490e-01
6.177256478422391561e-01
5.653419609372847265e-01
5.803794089105600573e-01
5.961088359760373656e-01
5.711597635059920686e-01
5.564049933425595507e-01
5.454421512712203102e-01
4.407338414537935178e-01
6.358433231154707599e-01
5.109904521779128350e-01
5.952660616788933989e-01
6.665000600010102527e-01
5.201648893643067151e-01
5.859872511495958225e-01
4.140577542313140236e-01
5.444120713178299820e-01
5.523544580333507037e-01
4.942401486243367392e-01
5.449400062579536907e-01
5.595561176510310819e-01
5.480909282912181935e-01
4.812785367826879490e-01
4.682220584735185542e-01
4.894193542243457928e-01
5.691104252613389258e-01
4.356590921397259231e-01
4.789388343179429297e-01
5.109299722761445617e-01
4.397078069779780107e-01
5.549270789252582770e-01
5.063241950512025191e-01
4.274807528880459340e-01
3.402418304194414489e-01
3.760476522884492745e-01
5.464252025376516997e-01
4.529864831921162627e-01
3.830751540515744957e-01
4.218661344712897887e-01
5.419380589673699067e-01
5.279528399394146643e-01
4.278831768570984240e-01
4.777511829811133537e-01
3.925520918856601482e-01
4.051995723254365189e-01
3.704218076706421447e-01
4.187089419478526309e-01
5.148363874122994233e-01
3.761083344639501447e-01
2.717208310863410414e-01
3.620346205991203381e-01
4.932237221621278422e-01
3.327540543434553966e-01
4.041863822451784438e-01
5.088484724748411070e-01
3.229341610693155507e-01
4.092804487184754647e-01
4.407235254811572300e-01
3.796994045521961958e-01
3.095449421572979976e-01
3.660212373397761509e-01
4.696545623967382510e-01
2.850852714461356019e-01
3.463445358091118420e-01
3.148272245154079552e-01
1.623771109162214232e-01
2.070573977410301580e-01
3.465089845084961540e-01
2.676341898856348656e-01
2.018919285712014178e-01
2.254949692182104393e-01
1.857577513879471454e-01
3.036443084157245953e-01
2.731126779495994250e-01
2.243186452203449477e-01
1.515922698943527047e-01
1.803752422991595772e-01
2.461760619169724995e-01
1.590947108287792400e-01
2.743906445984545805e-01
1.803648251906275757e-01
2.215424356276252116e-01
2.773889509553551513e-01
1.543624112651206248e-01
1.219444753347356247e-01
1.732098908544721372e-01
1.931998135545583972e-01
1.472452010193162630e-01
2.277343438188681457e-01
2.171072764594502713e-01
2.123260266071039792e-01
2.630558207782527358e-01
2.828426604639926456e-01
1.726915639260914181e-01
2.371006378167729300e-01
1.502503846899109208e-01
3.260877126675305604e-01
2.046386061681845225e-01
1.649164577421929900e-01
2.783525839228592202e-01
8.886894687603985599e-02
2.257931209787794602e-01
1.742110456362692128e-01
2.369265811077395645e-01
3.067532586130766736e-01
2.889568954650379995e-01
1.104670484037421074e-01
2.319030070964283041e-01
1.197885387307000560e-01
2.348267755123717437e-01
3.332855290747677168e-01
1.298438788442897174e-01
9.724966118684241767e-02
2.159103205188712682e-01
1.418526793724097512e-01
1.962293712382195965e-01
1.055500727480103151e-01
2.287651317327635825e-01
3.600858124877068245e-01
2.249099930337866704e-01
1.755782150802503994e-01
2.442801484331286188e-01
1.559074806298198501e-01
1.000688539885559170e-01
2.096138367119244617e-01
7.393324268599876792e-02
2.074770149947051667e-01
2.068979047501950941e-01
2.015986313831324983e-01
3.003179137561439171e-01
2.594122605927440262e-02
2.425171289240053429e-01
2.131171199209288547e-01
2.670019827388890321e-01
2.311752255192502936e-01
1.966686090591973635e-01
2.123697177733434582e-01
2.502930442027508917e-01
2.567246469929770347e-01
2.604065380748182279e-01
1.779410779095419448e-01
2.422984708124006348e-01
3.128346241055861565e-01
2.861327469567148674e-01
3.153513162481175192e-01
1.836331672353880284e-01
2.502410598069310099e-01
1.958037869012043686e-01
1.796044775146174999e-01
5.505410723205028667e-02
2.568041406448132169e-01
2.454963203979703135e-01
1.732488285848827747e-01
1.953849787455590459e-01
1.188637423505690682e-01
8.054395903676814239e-02
2.774842219687854716e-01
2.226923628829539092e-01
9.063277548513415383e-02
1.977258948532351068e-01
2.207005715644074773e-01
1.583074607257090038e-01
1.767767892086603565e-01
1.219064478397261508e-01
2.432748470407335439e-01
1.075936461917502696e-01
1.405737013553651771e-01
1.185306983390278512e-01
1.953438160023961423e-01
1.732988913793623853e-01
2.970601910881346397e-01
1.228047463281477514e-01
1.800814394239297345e-01
1.579359846603585193e-01
1.773533710293185850e-01
1.168486895310376639e-01
1.467093773963770165e-01
3.238908155911905951e-01
1.647087224262053784e-01
1.918956524390719176e-01
1.608806884308138230e-01
2.691704603310310362e-01
1.734912538808304205e-01
1.265558150927602599e-01
2.856292871584113491e-01
2.110257086928206682e-01
3.084944325378762287e-01
2.050271743740321728e-01
2.005807890044173369e-01
1.694418310810641426e-01
1.490101421345145782e-01
1.489982079696209327e-01
1.765983836103305338e-01
1.800259152327279288e-01
2.461771744219898306e-01
1.358704281021428928e-01
1.829930714118839230e-01
2.164662703972828339e-01
3.079292792016272151e-01
1.468050529640245738e-01
1.019034784687188333e-01
2.143578681640302408e-01
2.067147457161132573e-01
3.190206663475986248e-01
1.180678956045654315e-01
1.044527367175351884e-01
1.680773923348978238e-01
2.316014166730352430e-01
1.925285675411975150e-01
2.287544112120424300e-01
6.559197179494358210e-02
1.250654608288389591e-01
2.194993678722123587e-01
1.758743441057590839e-01
1.617539049573880616e-01
1.972629909827220418e-01
1.942442549552105824e-01
9.894805418033791877e-02
1.577888303877018616e-01
2.261147365210525173e-01
1.936010238823110408e-01
2.042125161542539535e-01
1.348513720809627614e-01
2.002311585268842231e-01
1.423075934235887852e-01
1.922425522172350743e-01
3.750771420063188644e-01
1.913889562653374732e-01
1.561778197287047032e-01
2.796845577033695296e-01
2.807342582283313126e-01
2.887495646971340313e-01
4.175368657002051509e-01
1.792183365951740548e-01
3.210572613401191377e-01
4.068911891426076344e-01
2.446120799419824188e-01
2.110844692721833837e-01
2.332849425390166598e-01
2.944874690647548698e-01
3.509360527213671310e-01
2.786590289156477551e-01
2.655418684288809450e-01
1.853593728968566667e-01
3.488986486351633443e-01
2.754378166949050244e-01
1.776322056312035214e-01
2.555702697157170578e-01
2.220891820432319141e-01
2.692839360027105000e-01
1.565797380087327051e-01
2.422990776360788301e-01
1.795717091406560106e-01
1.189603281522984002e-01
1.306675382616816483e-01
2.712015939258989872e-01
2.472265715346850801e-01
6.573093397748663858e-02
2.743566625762055566e-01
1.796025559125784543e-01
2.075858383593096601e-01
2.538274775945454365e-01
1.764169439003644424e-01
1.426059474604515209e-01
1.408802474879293776e-01
2.576528820259959551e-01
2.734537117842778531e-01
1.230123805121237091e-01
2.182965459890802151e-01
2.795195021839557148e-01
1.915784869270376056e-01
2.332977869337992116e-01
2.115172343240572239e-01
2.942275470721517072e-01
1.932987255054007258e-01
2.279757577483330078e-01
2.324914219377776092e-01
1.810115960580546135e-01
3.055147353835027113e-01
3.545478558890737819e-01
2.426608445461025942e-01
2.428789969731858234e-01
3.146819918406759120e-01
2.154334597507344684e-01
3.309320719824019874e-01
2.860287781573143118e-01
1.633624883307580600e-01
3.080018955337141540e-01
2.961080877341002449e-01
2.591508215613997912e-01
3.528779835154394751e-01
2.682833880438912910e-01
3.517373608651793715e-01
2.457763686461248431e-01
2.616121917922837881e-01
2.874390319459538268e-01
1.334974515768185821e-01
1.981474337086375215e-01
2.050594370647911280e-01
2.951821788526007295e-01
3.022081635671280964e-01
1.083212254934110552e-01
2.270256771317676892e-01
1.991536453380646776e-01
1.863619435945401692e-01
2.569735450518947917e-01
2.739442260481000924e-01
7.239393813424499502e-02
1.223138275184937340e-01
1.864549895993352635e-01
2.017284912404733177e-01
6.515829650114701721e-02
2.777345359501108280e-01
1.359420330705434221e-01
1.770791887252708419e-01
1.372166621961169453e-01
5.596595807436244296e-02
1.950339323513639034e-01
2.039292315227526631e-01
1.596823165774553521e-01
2.078971379294108912e-01
2.006676656518310287e-01
2.257169648520088723e-01
2.133384075919712020e-01
1.862351178430141641e-01
2.414455828201551579e-01
1.991657817770771111e-01
3.017912770086292329e-01
2.761084558855207427e-01
1.213059976962677089e-01
1.828864730493174884e-01
1.864774420053949555e-01
1.667045592185996128e-01
2.448592586767849300e-01
3.045805332662905873e-01
2.720964537629079194e-01
1.667115376712952068e-01
2.380911732184810559e-01
2.001734093205264076e-01
1.889082688734403659e-01
2.295070724810645002e-01
1.767962075092184282e-01
2.232576173577383027e-01
1.882364160378749984e-01
2.342897382488305924e-01
2.399077953206483205e-01
2.327123050628330247e-01
1.862975193484516234e-01
2.725927328317584997e-01
2.497511523644574405e-01
1.906236528752655035e-01
2.048050776066667744e-01
2.915546994577971063e-01
2.399473398709330851e-01
2.366147758552904490e-01
1.799700876312030351e-01
1.844740199357735033e-01
1.442336457197829214e-01
1.842226945837739382e-01
1.945438226388079839e-01
3.391822184761362768e-01
2.708909011830461511e-01
8.823036810408291242e-02
1.773922076183226393e-01
1.872542750046697346e-01
1.379157208752778141e-01
2.464525703677258317e-01
2.669387721379057887e-01
2.720325352004875907e-01
1.490654640514407214e-01
9.221020867074281036e-02
2.931064438575687325e-01
2.847154135740516678e-01
2.510412554451827427e-01
3.554870137106452277e-01
2.754018119345673643e-01
3.728917745433735220e-01
2.889237225439245105e-01
2.129894850722260369e-01
2.757090660250754444e-01
2.422638819734601601e-01
3.110860671755050766e-01
4.147322366262395366e-01
2.755556412533964328e-01
2.912981149839706241e-01
1.770307441211077526e-01
2.551377069302771528e-01
3.124849936271206774e-01
3.206130678053896177e-01
2.181538417369582872e-01
2.781555691178876355e-01
3.067221084256271380e-01
3.452074529539992942e-01
2.395540182271604923e-01
1.662977863624236496e-01
2.044426027372243659e-01
2.929539293153899937e-01
1.947307237412255754e-01
2.406561076952482559e-01
1.902676507686383855e-01
3.238668461324954451e-01
2.743080156964471383e-01
1.626659580773903713e-01
1.992744028736942452e-01
1.657187772604838960e-01
1.876113896146061055e-01
2.242243855737059421e-01
2.346296595784909123e-01
2.383617145909407986e-01
1.736079659350029392e-01
2.288784051272181319e-01
1.698520425957176228e-01
2.374494592005451654e-01
1.906307324621463462e-01
2.189916603243873272e-01
2.494727223077842782e-01
1.587497326547511189e-01
2.100421517421777740e-01
1.964695715196298487e-01
2.222504954959388934e-01
2.281214961099169436e-01
2.766180850338299524e-01
2.792081014765622760e-01
1.760079460301929855e-01
9.363340799471797649e-02
2.127458461325706374e-01
2.744428312686249538e-01
2.236461855649057862e-01
2.691880581600883948e-01
2.512815568680772382e-01
2.191123167209391154e-01
2.872367580242801699e-01
2.861223298467081566e-01
1.273488300053626787e-01
2.498551211605216649e-01
3.573287177807942250e-01
2.168611090958649790e-01
1.950949179394407818e-01
2.680822266263029885e-01
2.477906123686347550e-01
2.090574822907087515e-01
2.931588328034113733e-01
1.115768242817684053e-01
3.170337296020950268e-01
1.875903531285458836e-01
1.519033671899469029e-01
1.975122935898796506e-01
1.605584660745683623e-01
3.302631521210266374e-01
1.375910712258723301e-01
2.934894495274616988e-01
3.113345606885134509e-01
2.507754675094818753e-01
2.895436921131226415e-01
2.334287592974757519e-01
2.862428851027067345e-01
2.256755998332526936e-01
2.301919719833570577e-01
2.272256249029317443e-01
2.908957921565574756e-01
3.387032338241553475e-01
2.907182967851661970e-01
2.281602315642684564e-01
4.284690632774672547e-01
2.959383799142103477e-01
2.777290745540113570e-01
3.253287809080259163e-01
4.334729155788278332e-01
2.824625877598249124e-01
3.212352623937035356e-01
2.529743873251520947e-01
3.958270078338674280e-01
2.282876641359016245e-01
3.065517937857064057e-01
2.598608030291885140e-01
1.506944770913841714e-01
4.953990770677313971e-01
2.339883501033606095e-01
1.274178054135474136e-01
2.489023098485443342e-01
2.284789141310318294e-01
3.227196495730439429e-01
1.833077084963370407e-01
2.460626873828969385e-01
2.673952032456793915e-01
1.939206166767901696e-01
2.397865321026687591e-01
1.810222154391534222e-01
2.603202682476682406e-01
2.472910969139524573e-01
2.011195455962653256e-01
2.754276018615009480e-01
2.670382909075345035e-01
2.576292159750636634e-01
4.297658413937301969e-01
2.893355522482743414e-01
9.772409467346543366e-02
2.044819450172724595e-01
1.804748622038291339e-01
2.392868143739437237e-01
3.854698750260254769e-01
2.733071643267596662e-01
2.538462890705705521e-01
3.191949253309059875e-01
2.875808259684967116e-01
2.792011230272826716e-01
1.970394782963662550e-01
1.743292747444750157e-01
2.007248080355991116e-01
3.046628587544015221e-01
1.709922607030183173e-01
2.199320317943231906e-01
2.975967226705686364e-01
4.538472598691964399e-01
2.707290820440311219e-01
3.279965716782474727e-01
1.653212078626102866e-01
2.716025008432481624e-01
1.407852798828054253e-01
2.145338464768867803e-01
2.233293234659932125e-01
2.788156900691994289e-01
1.992245423486761480e-01
1.781788509067986359e-01
2.782473003463403205e-01
2.233824203731166191e-01
1.887346167089968274e-01
2.443838138246887670e-01
1.589844715429330479e-01
2.245465067952210347e-01
1.853454159946513746e-01
1.140414308959242229e-01
1.252205037933941112e-01
1.299478476441572328e-01
1.669702460196470506e-01
1.243698408080787798e-01
2.642464050880286575e-01
2.824800844547733503e-01
2.366372282600301968e-01
2.615510039314847268e-01
3.151815072922541927e-01
2.106991374450268850e-01
2.832215195201052693e-01
2.821050686035904143e-01
2.047099077268023093e-01
2.442795416132548247e-01
5.155806543124306085e-01
3.444162585032707335e-01
3.095990504333884230e-01
3.366875741831197866e-01
2.567831041560372229e-01
1.829853849996938564e-01
2.510159712054102488e-01
2.532875073595343141e-01
2.104035141066805670e-01
3.291455886925075403e-01
3.462710092376640181e-01
3.770142182269597964e-01
3.832070366515830662e-01
3.658670034741048904e-01
2.242743472344634892e-01
2.827369723373712174e-01
4.042581894853684576e-01
2.737818000875023583e-01
3.069029413133898543e-01
2.954581816223252333e-01
4.812850095520247451e-01
4.040158653283439372e-01
3.765690133214777968e-01
4.643914960599408448e-01
3.376138876134015532e-01
3.393378682574610394e-01
3.588203868268812213e-01
3.330003228434786355e-01
3.565080924735635204e-01
2.869838144856133866e-01
2.979216757287463380e-01
2.240340458076868213e-01
3.720987596299952238e-01
2.012534509302489338e-01
1.852629893717322451e-01
3.647918164377360051e-01
3.374901971115795152e-01
3.053369366038046762e-01
1.812837556227722136e-01
2.485033245326115914e-01
2.021366800174262401e-01
2.903383252201540699e-01
2.952807873910987535e-01
2.789004428437145133e-01
3.107245025395991567e-01
2.272175339472385369e-01
1.958937987974682660e-01
2.893800525157267933e-01
2.847099521817559320e-01
1.560914487593695332e-01
3.169208607543267386e-01
3.078347161414027866e-01
2.626695787244667235e-01
1.698515369153098531e-01
4.177701886714161872e-01
3.476698345512897470e-01
2.007912550165923404e-01
4.595042546725892074e-01
4.398187542260378335e-01
3.173790111892428323e-01
4.258445591248591344e-01
4.898132826852753530e-01
4.339350103561222527e-01
4.684429415979521893e-01
3.858047395005282376e-01
3.070965174577886536e-01
3.942724316010823293e-01
3.747334786114255301e-01
3.823440349585692233e-01
4.076046092679443400e-01
4.707356153755836159e-01
4.225922978581510558e-01
3.315390960249587904e-01
4.622252434828030276e-01
3.890674178820563989e-01
2.791639046267320179e-01
4.234015958236246324e-01
3.776404582912961105e-01
3.823565759393763863e-01
3.344363665569564659e-01
3.490150572776922755e-01
3.654481953175281461e-01
3.197892061213296055e-01
2.231372643730640259e-01
4.075576817163367171e-01
3.172295307614972359e-01
4.173125439235059186e-01
3.271315472447374750e-01
3.853102808975096272e-01
3.053221706065180063e-01
4.171292837490260252e-01
3.280907301879033566e-01
3.460405181011762532e-01
3.829132337756538385e-01
4.695892279192084295e-01
4.202250861361469525e-01
3.679601340273360166e-01
4.173548191709090527e-01
4.748018269129768432e-01
5.132272983542516265e-01
3.947429207423770459e-01
4.486633837756196508e-01
4.050341122570838559e-01
5.689757108259866358e-01
6.306533787993202633e-01
5.243082683994551019e-01
6.375207807534442050e-01
6.760658972236256448e-01
7.614601826556568476e-01
5.796678092536973192e-01
6.386484578770650344e-01
6.401159551851340890e-01
7.188981083520624704e-01
6.867907640270821679e-01
7.458304766330737801e-01
8.858736134931473050e-01
1.029750650282470925e+00
9.514777217167003087e-01
1.018201618379505957e+00
1.089077794133744836e+00
1.273871103455146869e+00
1.552226316937056927e+00
2.047404612014696923e+00
3.888428331433257057e+00
8.672875527226626247e+00
1.538940642044419249e+01
2.023116024587763562e+01
2.163710671409259589e+01
2.138617327065081142e+01
2.127747318610128957e+01
2.134634654660313657e+01
2.116761761176691081e+01
2.139481400808745803e+01
2.153347531064240172e+01
2.156668949787014000e+01
2.177962598718044518e+01
2.163124602945116948e+01
2.179127109918959349e+01
2.180736300112543802e+01
2.196126534035524003e+01
2.190027317870524115e+01
2.198333979696935359e+01
2.195265534855376188e+01
2.207944620594214769e+01
2.209111700674443668e+01
2.207616653655819405e+01
2.220515985355647359e+01
2.205791030364761696e+01
2.219004311420415476e+01
2.213350644025253899e+01
2.211251829574401029e+01
2.200626097222687250e+01
2.210095571148885440e+01
2.212632551372053769e+01
2.212474393391353189e+01
2.211103077331620881e+01
2.218670306605548959e+01
2.219630763873441381e+01
2.226353418609537727e+01
2.239600186112929947e+01
2.231328001876571321e+01
2.221537822645689886e+01
2.215974824536693788e+01
2.230190059355209087e+01
2.209183083141869730e+01
2.219586850204667883e+01
2.220496051260610670e+01
2.232278476926575195e+01
2.220881089786180951e+01
2.234215836332457172e+01
2.213468670859636234e+01
2.217968102568155331e+01
2.224725265235464988e+01
2.231321721271358527e+01
2.221543405405587279e+01
2.219570203060826685e+01
2.206217029360353976e+01
2.220418903986509562e+01
2.214966539599307183e+01
2.239177221226622549e+01
2.226691630722307380e+01
2.232104440443393045e+01
2.243007126250661898e+01
2.244415782077119559e+01
2.240085259207209489e+01
2.237501715527664459e+01
2.234181692494305693e+01
2.231406908934221178e+01
2.236605318410941479e+01
2.259861428941107420e+01
2.232345368913349404e+01
2.243193046327001028e+01
2.238303104582513825e+01
2.240030129449966623e+01
2.262496036672783362e+01
2.235291478486137962e+01
2.234670345837488270e+01
2.247097600542630502e+01
2.249092142786097170e+01
2.247878104814633815e+01
2.245738228757248933e+01
2.237929079871636517e+01
2.246066802517630379e+01
2.252140380462885716e+01
2.265360053373981941e+01
2.238778529210940249e+01
2.245422883711825079e+01
2.248867922142456877e+01
2.257729097700877929e+01
2.244840132539871291e+01
2.236596691428002259e+01
2.225004919048121721e+01
2.243937808797419109e+01
2.230827667214855481e+01
2.227546581911961354e+01
2.215269495367355290e+01
2.214725641471004991e+01
2.217651028080409148e+01
2.214143861214103026e+01
2.219096002189355588e+01
2.225816512822358106e+01
2.220505163700654094e+01
2.213481282638474568e+01
2.215907396524357864e+01
2.207108369629052547e+01
2.212274041070973851e+01
2.217420597627577195e+01
2.222004013469455330e+01
2.204792171392698563e+01
2.218626312027060266e+01
2.214624190984909902e+01
2.207591015436105053e+01
2.216608538623322389e+01
2.224585969298814803e+01
2.212339759868669375e+01
2.222110500576161840e+01
2.214590138169895184e+01
2.226913484760845918e+01
2.207267832275811514e+01
2.211131304657437724e+01
2.215126214634217661e+01
2.228996430822855501e+01
2.244743354581471095e+01
2.214245433064553126e+01
2.213684547703814687e+01
2.223116105383493490e+01
2.224544796441954375e+01
2.225216588594195599e+01
2.251927456818007300e+01
2.241938280501213043e+01
2.245308002237017675e+01
2.230887904389111043e+01
2.236155956777625420e+01
2.239660433401020967e+01
2.244615244392298692e+01
2.239478943123505061e+01
2.234323122421260877e+01
2.266241350742587102e+01
2.246467153179585097e+01
2.242578083032709557e+01
2.235616947341744876e+01
2.245976901872505138e+01
2.246044420907752937e+01
2.223352988374282546e+01
2.242123219548977886e+01
2.244152188814418736e+01
2.246815832967653392e+01
2.228435525234425185e+01
2.235676021440644945e+01
2.236761746948884877e+01
2.239387515310584931e+01
2.245093601992520860e+01
2.246197754655137757e+01
2.230842908554869908e+01
2.231536546291490097e+01
2.239624944441024113e+01
2.248731134402233778e+01
2.234566902953466538e+01
2.232527577262665019e+01
2.221798766119443869e+01
2.229026498841102111e+01
2.227347868010154386e+01
2.225018410718532991e+01
2.231983318818477358e+01
2.227408277117520186e+01
2.228650936848681141e+01
2.225936036483361136e+01
2.224906411647600990e+01
2.231008884422497829e+01
2.211361279994091333e+01
2.224356934535878239e+01
2.227593620712920952e+01
2.248067069113497141e+01
2.218907877327747258e+01
2.220967228136722582e+01
2.219924465609087250e+01
2.231078031763306768e+01
2.223530908517194504e+01
2.217659058355308943e+01
2.230665807622009922e+01
2.219271292771379578e+01
2.211372081421617963e+01
2.230737119293502602e+01
2.203152832270853168e+01
2.209744362936993767e+01
2.219108866810881864e+01
2.212127190203082705e+01
2.211858186113107649e+01
2.226006640196096242e+01
2.215122320861225091e+01
2.241051258780839817e+01
2.225656908583638582e+01
2.231309938815546801e+01
2.229693264487083582e+01
2.229681047141845696e+01
2.232356372614739115e+01
2.229117006307957993e+01
2.228365214819038798e+01
2.226451116914305572e+01
2.219144628840669498e+01
2.235819807858775832e+01
2.237829116099031523e+01
2.232284646281540930e+01
2.269904673077231294e+01
2.230998871862919941e+01
2.221518282984652259e+01
2.229994420016951651e+01
2.217928922109531342e+01
2.240205551509492921e+01
2.224027278609912273e+01
2.227411402249549965e+01
2.233121483841503263e+01
2.217276578594641023e+01
2.223573163539469988e+01
2.215530378159563440e+01
2.217597860380183761e+01
2.227698651447256850e+01
2.229431511916951436e+01
2.216186413173609182e+01
2.219330660167472402e+01
2.214592949777847863e+01
2.228346494367251651e+01
2.210033725897305956e+01
2.218501468561802525e+01
2.207008365401241434e+01
2.213923058999759164e+01
2.207449271984885186e+01
2.215628187714971986e+01
2.216551568172518571e+01
2.205582526405242660e+01
2.206302388955776905e+01
2.212398672148405865e+01
2.217811218913871940e+01
2.200864123060930666e+01
2.214167173283602708e+01
2.212877262363734587e+01
2.212941282060449666e+01
2.210029589395577787e+01
2.214515488978668145e+01
2.209603873583498768e+01
2.205448327770975325e+01
2.213622692338095277e+01
2.210326648878433176e+01
2.212680540859900091e+01
2.196937207463501807e+01
2.207557407623941970e+01
2.190124601513601377e+01
2.207262967587974600e+01
2.202613084535563104e+01
2.198476795200429024e+01
2.196876798356859339e+01
2.199890831512896128e+01
2.206761773262013548e+01
2.213584543476408939e+01
2.196799469035826746e+01
2.199814624812193031e+01
2.213813598466548171e+01
2.216902331382543068e+01
2.210014439078513959e+01
2.211416935663888950e+01
2.219631957289129787e+01
2.216449379387292851e+01
2.204397140534806354e+01
2.199137775811678708e+01
2.197490092890480895e+01
2.208216557656041346e+01
2.190319057549704951e+01
2.191721159700897203e+01
2.192693116241421691e+01
2.190643302647967872e+01
2.183753407832205795e+01
2.188001574874440536e+01
2.194268364870656995e+01
2.202869760029457780e+01
2.194169614741408481e+01
2.195395556533455306e+01
2.187103832635840917e+01
2.198511748134049171e+01
2.204322693617722351e+01
2.206690522272376853e+01
2.202689978967209683e+01
2.211603624381230659e+01
2.215471819858815650e+01
2.206395627120549818e+01
2.211358124520988255e+01
2.206105151653354568e+01
2.192221332543564571e+01
2.191150383145005875e+01
2.183739673433093031e+01
2.203846045232441853e+01
2.195946591153745686e+01
2.203334737209686622e+01
2.193272347846777848e+01
2.187633931905881823e+01
2.181951551727186356e+01
2.180888946128341388e+01
2.202925678655494579e+01
2.203325877612176953e+01
2.198644257780925670e+01
2.199809992739693953e+01
2.192981265558097093e+01
2.195162172880645102e+01
2.193208358491209964e+01
2.191275125473357832e+01
2.200115891592857054e+01
2.198570245752413044e+01
2.192602942526257692e+01
2.195633734076931276e+01
2.184747503253557355e+01
2.182327063151193869e+01
2.174681786484737955e+01
2.186126778792701941e+01
2.189226191771579266e+01
2.178321331519817861e+01
2.189724018236938718e+01
2.183368743513144850e+01
2.179965100440492520e+01
2.179400270738301160e+01
2.197282549732085855e+01
2.183496337903754636e+01
2.196622125374183909e+01
2.194737630257937866e+01
2.183910989331758756e+01
2.188972327884729907e+01
2.182227989384193734e+01
2.190689764967982001e+01
2.201735246051005390e+01
2.199104481523825783e+01
2.198933286989289826e+01
2.192466144672592065e+01
2.185767914512477716e+01
2.191858341875304461e+01
2.185555304392307363e+01
2.224310158691227457e+01
2.206819330306640481e+01
2.198037446126232197e+01
2.197681868797016946e+01
2.202277684030125826e+01
2.187866739077265166e+01
2.191816147535164916e+01
2.193334830261281354e+01
2.194115749195595200e+01
2.183235536021184942e+01
2.181381028014160961e+01
2.208302089184373074e+01
2.192477522580427873e+01
2.183326943607097093e+01
2.173979774608108073e+01
2.189300638688964895e+01
2.192293544333857014e+01
2.191243641537236897e+01
2.182715489765377015e+01
2.200690258510409336e+01
2.185802847218654676e+01
2.175270717124719511e+01
2.179930501486045458e+01
2.195072181212345086e+01
2.196743823479617674e+01
2.190077684077300546e+01
2.197576200899695564e+01
2.200519428069108940e+01
2.188110135288503599e+01
2.185107783451450558e+01
2.190498009289414583e+01
2.194723248581835406e+01
2.185839489139837966e+01
2.187459794285159731e+01
2.183428080568445040e+01
2.187656505675179375e+01
2.194227202127004261e+01
2.190329444315575103e+01
2.187961281908555122e+01
2.193441347709207534e+01
2.192419672238849060e+01
2.195244164615379390e+01
2.190249283160315841e+01
2.186082025686961572e+01
2.197952147212641094e+01
2.190922288956372910e+01
2.198565067539924200e+01
2.204519445462435456e+01
2.193684703466026775e+01
2.223837990673048992e+01
2.210783959877143801e+01
2.208294787095873346e+01
2.210294669371340959e+01
2.217992496803759295e+01
2.219815308486761651e+01
2.217752589817236952e+01
2.219748639001502610e+01
2.206563190838197741e+01
2.216929415860649755e+01
2.219196785171663322e+01
2.207366906043286647e+01
2.205140699475373012e+01
2.214169560115975344e+01
2.212736944943278772e+01
2.212737521424185871e+01
2.209407273444336539e+01
2.210360196008685918e+01
2.203855501537843509e+01
2.199486769124687768e+01
2.211208360908123183e+01
2.204333050042335529e+01
2.218227781830777090e+01
2.218943659584814654e+01
2.212437973971757899e+01
2.210918198965855197e+01
2.212753490950650104e+01
2.225377881820588399e+01
2.234820675816651203e+01
2.224735945298737150e+01
2.246401909725803137e+01
2.219938361827861684e+01
2.200210222036912100e+01
2.183354058426407107e+01
2.192214869891715523e+01
2.179055484723286540e+01
2.185814447628339252e+01
2.180561535443239762e+01
2.180733802029428858e+01
2.179694650091665054e+01
2.182496467561761122e+01
2.217575893431807188e+01
2.185941950995457717e+01
2.188549201179420933e+01
2.183110035165653073e+01
2.190651252013181960e+01
2.190314273771524967e+01
2.196002449097717957e+01
2.188747925194795485e+01
2.195608571201265136e+01
2.195637162620127825e+01
2.192201924360719900e+01
2.182953222306963070e+01
2.190503794323322495e+01
2.198004647409420542e+01
2.198153713176699142e+01
2.197314761854285692e+01
2.212114942516712901e+01
2.197027310382585341e+01
2.200577339093419837e+01
2.189606942090491160e+01
2.206541658779033099e+01
2.196456624849993133e+01
2.190631752806875454e+01
2.206612171468497863e+01
2.212641421083401028e+01
2.212039474116319582e+01
2.205045479026333766e+01
2.210731793432281478e+01
2.215084313590837439e+01
2.213997961033401651e+01
2.218103079957045409e+01
2.224375311121894327e+01
2.217443757991851072e+01
2.210679475281983386e+01
2.217255410628602519e+01
2.216979235927847824e+01
2.210690802621894591e+01
2.205710323069645185e+01
2.226660045649166619e+01
2.198086952668700178e+01
2.200556221695524073e+01
2.205519548419465181e+01
2.216203090658281738e+01
2.202820880536257420e+01
2.210913819735423047e+01
2.205085498921769371e+01
2.204886633314519884e+01
2.209269292287771336e+01
2.209469968246821026e+01
2.215765410344047837e+01
2.216816921218581982e+01
2.207373277671797496e+01
2.215305176487619576e+01
2.209117455367953653e+01
2.202390026966822134e+01
2.191315226278712558e+01
2.189224371306368155e+01
2.196808541021129457e+01
2.198210845446262596e+01
2.193542515011837679e+01
2.182624951957869186e+01
2.184967000800901360e+01
2.184106871398775596e+01
2.167715523149069767e+01
2.191071607566494706e+01
2.199024128208107953e+01
2.176534999938463599e+01
2.190569937896181330e+01
2.187767230420837095e+01
2.194735738996800478e+01
2.181071255614957849e+01
2.177854311373063467e+01
2.183199915583313810e+01
2.182880484604285698e+01
2.192878520519423091e+01
2.179404852242709723e+01
2.177103561594548964e+01
2.185779049691921117e+01
2.180755910569090616e+01
2.185780293676427988e+01
2.196410688442432857e+01
2.191582318879937930e+01
2.183904061449909051e+01
2.185624492187294265e+01
2.175263920720959376e+01
2.201298334377720067e+01
2.194404636812076248e+01
2.208486846185797958e+01
2.198448921853386651e+01
2.202786180444649133e+01
2.204388624802485097e+01
2.190811382164008947e+01
2.186597419642535911e+01
2.199465732636135584e+01
2.192917063815161072e+01
2.186553940863143097e+01
2.199588431997992899e+01
2.201811725821249865e+01
2.190887942843885838e+01
2.195733576485491767e+01
2.196051611774747769e+01
2.200831122070621859e+01
2.205937881233289133e+01
2.186261644930645787e+01
2.195169151330855328e+01
2.199615870455739497e+01
2.187790856015065799e+01
2.185466162273957735e+01
2.195355384931940890e+01
2.191025711612990534e+01
2.201374692783344500e+01
2.184973362315691148e+01
2.173513887194744854e+01
2.190933494931659453e+01
2.192245888597749826e+01
2.199660259468095802e+01
2.197403003853332493e+01
2.187827841801917472e+01
2.184001203501413357e+01
2.181213049634945733e+01
2.172525607149088245e+01
2.187785829508089819e+01
2.200489117321755117e+01
2.175636590196169351e+01
2.178273008279761669e+01
2.173405185188891409e+01
2.194646040625397987e+01
2.177592953237171258e+01
2.196105244704975590e+01
2.183081989886573382e+01
2.171232126094366777e+01
2.162849884616825946e+01
2.181876801399209853e+01
2.180291034525905758e+01
2.182549857763758538e+01
2.176535920285029846e+01
2.166544276226305854e+01
2.172573475272802668e+01
2.164593556627475834e+01
2.174151302894367177e+01
2.166597716996841427e+01
2.172641783176417718e+01
2.188216318984295583e+01
2.173290849854184970e+01
2.159895835792177721e+01
2.174254371571932865e+01
2.168548709664917951e+01
2.154195433007571125e+01
2.176257571139783309e+01
2.166954791152620885e+01
2.168506758053403161e+01
2.171000036995260274e+01
2.188106019014170656e+01
2.187433114355119557e+01
2.182878421410705982e+01
2.189948602973496250e+01
2.181483499983641750e+01
2.182973510381847149e+01
2.179969236942151412e+01
2.186441142809809790e+01
2.189472187203010378e+01
2.189545390135771896e+01
2.183539584068360995e+01
2.179047100469011511e+01
2.195306940327116507e+01
2.190234021592507929e+01
2.195340538026009014e+01
2.193027343557601938e+01
2.195788028625668531e+01
2.197280466310683522e+01
2.189908390917615577e+01
2.187541492722652947e+01
2.194251100791052878e+01
2.200013409510221507e+01
2.189124680603349660e+01
2.188838897891573865e+01
2.195132600433299075e+01
2.187723711186535525e+01
2.191632280539058542e+01
2.201324255780898653e+01
2.191317157994837928e+01
2.184090578234069113e+01
2.198526645608340147e+01
2.184517649281522367e+01
2.174378881285181109e+01
2.188781320619737514e+01
2.199325850105042335e+01
2.168780626831066627e+01
2.176108121051639444e+01
2.184547697072729733e+01
2.174562626916653940e+01
2.182041320894172998e+01
2.182618347713997053e+01
2.183659765119683271e+01
2.185351978644731830e+01
2.171578843825572136e+01
2.181948386140726370e+01
2.188388029317610517e+01
2.159390383600094765e+01
2.173894860014909369e+01
2.180238807399110001e+01
2.176168813342283315e+01
2.180267944957743254e+01
2.168997434135653180e+01
2.185167585736705576e+01
2.206089424856061498e+01
2.194630040757955314e+01
2.175507842844273654e+01
2.170852639987334598e+01
2.181297175359676999e+01
2.182100566926219898e+01
2.176654341552873717e+01
2.178047472855898548e+01
2.191222625276805047e+01
2.186404470547479306e+01
2.182955770958694330e+01
2.200415125520983040e+01
2.203091138724553133e+01
2.205361825327873149e+01
2.201096626821973956e+01
2.213885850711609748e+01
2.205646465192387495e+01
2.198081369908267391e+01
2.201262784735897071e+01
2.196933799147974398e+01
2.201109804967997974e+01
2.206881650902283809e+01
2.197229513509683940e+01
2.190932261060484976e+01
2.205085943924653336e+01
2.194253275235702105e+01
2.191507477528460512e+01
2.184864367012714226e+01
2.195755846844347303e+01
2.189052286766249722e+01
2.187612258255072106e+01
2.207225779527525944e+01
2.182872423988670363e+01
2.177832486016711755e+01
2.199061174677069985e+01
2.171954972185056576e+01
2.182369510334208940e+01
2.195025870598091089e+01
2.188169452116539659e+01
2.181481436789557549e+01
2.184766071999661108e+01
2.183440904735187260e+01
2.166448357931981761e+01
2.159105956123575254e+01
2.168021887232745470e+01
2.164095477320049454e+01
2.164055639471366632e+01
2.161839576940403518e+01
2.162412082938223179e+01
2.164647846948885146e+01
2.171351032819784876e+01
2.163374471922021414e+01
2.165298643068213735e+01
2.156897994663657059e+01
2.161374893057741886e+01
2.177002556111268916e+01
2.158795708380765888e+01
2.173204762072273155e+01
2.168493276496581501e+01
2.172876693996973785e+01
2.160223711707584471e+01
2.167889306790091553e+01
2.172180264880207901e+01
2.168121871233129028e+01
2.180454077421405046e+01
2.181806753939729049e+01
2.187090553353045053e+01
2.178505107492409110e+01
2.183969790361125973e+01
2.183135107018485499e+01
2.181080186008589195e+01
2.189897933355703330e+01
2.189770440102205740e+01
2.184560096463969714e+01
2.206018436822483508e+01
2.186568504585323325e+01
2.182301020384033663e+01
2.200517031123084521e+01
2.207489453699421844e+01
2.190224959720685760e+01
2.206668221572379096e+01
2.210291867877535310e+01
2.199026100378565829e+01
2.184625380372813552e+01
2.167989412154378570e+01
2.179499486097230587e+01
2.187772125449589922e+01
2.190051256989506712e+01
2.173140378282537810e+01
2.179506505002528982e+01
2.179015080506954760e+01
2.188162554575689711e+01
2.171149780380465089e+01
2.177509262401681056e+01
2.173867037237018707e+01
2.184395789356639384e+01
2.178999040184866587e+01
2.177661119549352264e+01
2.187973903801501763e+01
2.183246125061089771e+01
2.179721198543900940e+01
2.196625361756773032e+01
2.172571401964972893e+01
2.185899159947117099e+01
2.188342315410807259e+01
2.182696860337447475e+01
2.170531631272264050e+01
2.164453633641709018e+01
2.172207177425788061e+01
2.171905293709470541e+01
2.180453409917701890e+01
2.161638364955636149e+01
2.162370940422301047e+01
2.177362805967849724e+01
2.168975537983218516e+01
2.181647159814497883e+01
2.187531217207565959e+01
2.155916217724005435e+01
2.171996751863917652e+01
2.176432426832116462e+01
2.158951479528820983e+01
2.156880194558631558e+01
2.175932790015265894e+01
2.164520930175844526e+01
2.161854616006500507e+01
2.171623242951649857e+01
2.163897279216789471e+01
2.145892796432229943e+01
2.161222530224997129e+01
2.156566063156239821e+01
2.160161906910411034e+01
2.175980981777394518e+01
2.170603489082863291e+01
2.157986794735708003e+01
2.148701278828450612e+01
2.169811161899829699e+01
2.172550921730389462e+01
2.171894158530173868e+01
2.179467425681033177e+01
2.176036981312883967e+01
2.191033387908165864e+01
2.182613139160485005e+01
2.175351798626583744e+01
2.185021028165915524e+01
2.191419528826840946e+01
2.191440322586201006e+01
2.182724460614095108e+01
2.186423929299133562e+01
2.200383580902764535e+01
2.196109785754716981e+01
2.183525445121513187e+01
2.199183338012822730e+01
2.195629010980901796e+01
2.198793131388230648e+01
2.181187229368936897e+01
2.196746382244909057e+01
2.184093157226606507e+01
2.187191710541735290e+01
2.197960713513220554e+01
2.195421973507379576e+01
2.189036499286693882e+01
2.188917916199509150e+01
2.198143215160412467e+01
2.183139809887275362e+01
2.188562682736305476e+01
2.188156091923847768e+01
2.185269663271769502e+01
2.192155775565233355e+01
2.196902375894081771e+01
2.204398728385285011e+01
2.186785048933512954e+01
2.182912019108968948e+01
2.187893570713149671e+01
2.188988014227419043e+01
2.190506383429613990e+01
2.185076997360085826e+01
2.197755870711519322e+01
2.202976499978836955e+01
2.206844230226299430e+01
2.202037018516332267e+01
2.198613845896509744e+01
2.203045809138615141e+01
2.190264251430098241e+01
2.201879386448388942e+01
2.195358125743479505e+01
2.189150541324641708e+01
2.183208805522142626e+01
2.194418654395159152e+01
2.179988483305832148e+01
2.203686966905555522e+01
2.166788441078701766e+01
2.190454914829748390e+01
2.186057044857506781e+01
2.193640840365925015e+01
2.198975825195260114e+01
2.194595977829762745e+01
2.194902261003588961e+01
2.181815987744057495e+01
2.178057606779631783e+01
2.178059902588169905e+01
2.186021495215677035e+01
2.207445317529289497e+01
2.253307834750000893e+01
2.248213788503302268e+01
2.206451191766861797e+01
2.199890912422295131e+01
2.199282442121305792e+01
2.188917845403535267e+01
2.187473174705543144e+01
2.194196486831877024e+01
2.194341638599065902e+01
2.197398553826998224e+01
2.193441539869413148e+01
2.184839912095255343e+01
2.200965705025264896e+01
2.181583817735467790e+01
2.204942653077661774e+01
2.203590623836117146e+01
2.218668718754915758e+01
2.192126769484784887e+01
2.192437330752433056e+01
2.196703024829365702e+01
2.204119479121121827e+01
2.193347785906301795e+01
2.209282278273623135e+01
2.202182635513639397e+01
2.198044444803575104e+01
2.192812407287186360e+01
2.190548072085091036e+01
2.184924179411417455e+01
2.199057048288792870e+01
2.175887076108695339e+01
2.193062913426951255e+01
2.185359058232188190e+01
2.174327159843155144e+01
2.168853769081889027e+01
2.182940205980093751e+01
2.185329758854321014e+01
2.174425019966930250e+01
2.173725344354141953e+01
2.178634309960948201e+01
2.178360532206117739e+01
2.186399373244708855e+01
2.187109425509868998e+01
2.187265267453889095e+01
2.189547422988972158e+01
2.178369108620506367e+01
2.190211852370504531e+01
2.189958443600025717e+01
2.189592782915681113e+01
2.182484270444441421e+01
2.186196977957647292e+01
2.198503576267209780e+01
2.191173118734359448e+01
2.205426188890203321e+01
2.214696574708257515e+01
2.199251838076401100e+01
2.192612955085596482e+01
2.197552130303007800e+01
2.195171214525452186e+01
2.202730888867909087e+01
2.195114375552787322e+01
2.206783659300392131e+01
2.195828230567518347e+01
2.190725779840277809e+01
2.184845707243077939e+01
2.185241415718509117e+01
2.191498597703539275e+01
2.203814804024674245e+01
2.195653243397046595e+01
2.211233028213376528e+01
2.184226556878855163e+01
2.202588134046900947e+01
2.190992144255541874e+01
2.195910171734001537e+01
2.198487080828989093e+01
2.201628991559202575e+01
2.197560797740415950e+01
2.215923831280792911e+01
2.196619829564994575e+01
2.210595187738501721e+01
2.206799396211572528e+01
2.200722227904300965e+01
2.211181043815244252e+01
2.213813456874757080e+01
2.203667720541803376e+01
2.205605059720321037e+01
2.221706337050489921e+01
2.223994924896141967e+01
2.214739456779603088e+01
2.211095916834477038e+01
2.218835402580985061e+01
2.237979304486609067e+01
2.224742943976949050e+01
2.219446118122920453e+01
2.232326982213425381e+01
2.223235608816819919e+01
2.223475171937757011e+01
2.202148663608240398e+01
2.216426127999136853e+01
2.215856534746276907e+01
2.207429044592383249e+01
2.206351298790113091e+01
2.215393206098755385e+01
2.208314357098007363e+01
2.211070764072547590e+01
2.206799608599204987e+01
2.217590851588715495e+01
2.217645758844883375e+01
2.201573892142486599e+01
2.226185743641091364e+01
2.212445013104321134e+01
2.214163046895542664e+01
2.198843487480951353e+01
2.215019272410990681e+01
2.224198210188637148e+01
2.201730715115186499e+01
2.200418624859808858e+01
2.214542684707743092e+01
2.216632821607733916e+01
2.237174466661080885e+01
2.241097458144901822e+01
2.232752364273233070e+01
2.234089627518469712e+01
2.240962106549233823e+01
2.240852656129465004e+01
2.227509252259465100e+01
2.243373262278427305e+01
2.235422936308401987e+01
2.231447869403676165e+01
2.263342907019393024e+01
2.242121105786217683e+01
2.252765720409097838e+01
2.243636157695772937e+01
2.247940071431174403e+01
2.235175545187295398e+01
2.233337734892273829e+01
2.233194251885235104e+01
2.244177483168215659e+01
2.237037365396407296e+01
2.233968364301710707e+01
2.238137047805525981e+01
2.239567175008969002e+01
2.235986734413617683e+01
2.248868437941321119e+01
2.246464493277545671e+01
2.246202811503200891e+01
2.255454679143423391e+01
2.246586252065059597e+01
2.217863223539269768e+01
2.246643333766357031e+01
2.247726156643933848e+01
2.237301767754739856e+01
2.224117128686787837e+01
2.238571855829972179e+01
2.237006326463133021e+01
2.233445870531533473e+01
2.238940206757623486e+01
2.242706304472817536e+01
2.231181838739895440e+01
2.226988174407152243e+01
2.240475688333340187e+01
2.231522983824793727e+01
2.230240516585361732e+01
2.234740383182929691e+01
2.232470920336936970e+01
2.230318513410253090e+01
2.209905757299691942e+01
2.209334110966350551e+01
2.218470237468221740e+01
2.206661485850865034e+01
2.234439601860065849e+01
2.222702161913752050e+01
2.218575551385966094e+01
2.204890334927397078e+01
2.209432790299493732e+01
2.230528089421419580e+01
2.235117937574006675e+01
2.216404312756854367e+01
2.219685863290077066e+01
2.216812289145672921e+01
2.219257598826980882e+01
2.212413245984549093e+01
2.215777395074312395e+01
2.222074687977913499e+01
2.244759030810633860e+01
2.214416799531841917e+01
2.220794991891153813e+01
2.215516997739406690e+01
2.211285862161895821e+01
2.217916755332893786e+01
2.210973814181253871e+01
2.211276719380757427e+01
2.205203525755932148e+01
2.222590607845889110e+01
2.230967377813698249e+01
2.211939439547695585e+01
2.217978054445094571e+01
2.211232714688539147e+01
2.208331287425280465e+01
2.208638875266113999e+01
2.192626244482121933e+01
2.214690294103061063e+01
2.197110950649481964e+01
2.203595225567821458e+01
2.216006055630197835e+01
2.210696425836800216e+01
2.209056287733278268e+01
2.204092354187949709e+01
2.216649559774562661e+01
2.215155817422783358e+01
2.209834637788820189e+01
2.207809622978061981e+01
2.202404651371309541e+01
2.215708146596655581e+01
2.216539371055261043e+01
2.202178731626877095e+01
2.203068868365479815e+01
2.204216590831741129e+01
2.207681522902689153e+01
2.216116052189368091e+01
2.213373935867482700e+01
2.225251258344803773e+01
2.210601751527628167e+01
2.225078425391464876e+01
2.193154543514223320e+01
2.204114300908813107e+01
2.211990695759851278e+01
2.211045429263445783e+01
2.215182467012203560e+01
2.216650621712921776e+01
2.204981752626902747e+01
2.203515448732465742e+01
2.195275324913189863e+01
2.215413575082580877e+01
2.188431497983647134e+01
2.202263079852797034e+01
2.198482519552317527e+01
2.188857931867927320e+01
2.184204397770841766e+01
2.201153971478975890e+01
2.194636028066238254e+01
2.204224317695084068e+01
2.181876093440537900e+01
2.193574130426059909e+01
2.195010750622090256e+01
2.196335998796180888e+01
2.194316951066711496e+01
2.189718071383844489e+01
2.205616518537726733e+01
2.185862032568700997e+01
2.201717466173243309e+01
2.215785526485791479e+01
2.200799840408604879e+01
2.194228476452799370e+01
2.193600547400232870e+01
2.198939092250996552e+01
2.212609603395324953e+01
2.218158533353219042e+01
2.201225809062767169e+01
2.228136685740765088e+01
2.220736261657613753e+01
2.209970919844305826e+01
2.227145563746167767e+01
2.218886223904295463e+01
2.220056267297337982e+01
2.222407458922220869e+01
2.216963792313861958e+01
2.209430211307259029e+01
2.220026927464949651e+01
2.213862649893015799e+01
2.206651058630162510e+01
2.221387684826472508e+01
2.218308671172360391e+01
2.207924261723862003e+01
2.219668629551421191e+01
2.215306015924011973e+01
2.208118404235143117e+01
2.209347420590428968e+01
2.201210769996352568e+01
2.212731958891188100e+01
2.207200879607416155e+01
2.216963620380990108e+01
2.220189029786559942e+01
2.215323350799245006e+01
2.209841848853996993e+01
2.210276727674477826e+01
2.207241698484869730e+01
2.215797602239082664e+01
2.216694606177349769e+01
2.198348856943961849e+01
2.198337013805737428e+01
2.194993800067381073e+01
2.196170730887573797e+01
2.192662330150275096e+01
2.188327822484218643e+01
2.196462500907912485e+01
2.207521574798569830e+01
2.195457118601460067e+01
2.185934982659039250e+01
2.190963299993931557e+01
2.203372289363684899e+01
2.190630154843024968e+01
2.202725720769375073e+01
2.200342569864483977e+01
2.202740689039297806e+01
2.201469984028512883e+01
2.206858884972012902e+01
2.216133205018055818e+01
2.211868724584256540e+01
2.205292192530048112e+01
2.210792101402414644e+01
2.211710364330005163e+01
2.204620046398167332e+01
2.197568261648209997e+01
2.214431100298055455e+01
2.206927809811536534e+01
2.215180899389429570e+01
2.214732609807563435e+01
2.206400461467135443e+01
2.204086255629205127e+01
2.211097535026105732e+01
2.198495657243384116e+01
2.212719569613616954e+01
2.213360171127273546e+01
2.219220147809739885e+01
2.216518546954914370e+01
2.200306888744453815e+01
2.219027653830995561e+01
2.217569501575783519e+01
2.238780784565384252e+01
2.215552790110358572e+01
2.211702738602913954e+01
2.212195639698704852e+01
2.219386123677352529e+01
2.218824489903039066e+01
2.217171922066571810e+01
2.227844804470289120e+01
2.210037589329090224e+01
2.209836781892195745e+01
2.209292432424673081e+01
2.205274089013977346e+01
2.214309442647299875e+01
2.187983966929239088e+01
2.197156088075317726e+01
2.213751712759664514e+01
2.202023375140477768e+01
2.208084149146124986e+01
2.196997576115965956e+01
2.203579701044179728e+01
2.207823468628181729e+01
2.217017556722761995e+01
2.211076114217308231e+01
2.227663162487569437e+01
2.200495549632672976e+01
2.193137107501829774e+01
2.213749609110857364e+01
2.194816365382360956e+01
2.207930694034733676e+01
2.210793648797999111e+01
2.198392780726191731e+01
2.197968501059195390e+01
2.202186569741332889e+01
2.195669081445076998e+01
2.199920373619396941e+01
2.217601319263744131e+01
2.198093961459925794e+01
2.206260447457992058e+01
2.208983034232039344e+01
2.199785608618177335e+01
2.191027441054685099e+01
2.213564184605737140e+01
2.200501789783395878e+01
2.207607743489477059e+01
2.210941278420738243e+01
2.200317892446435053e+01
2.189092630300253717e+01
2.206337473367473834e+01
2.190629517680169513e+01
2.186992157202869080e+01
2.195246662698131601e+01
2.202785300553105685e+01
2.196639328771293975e+01
2.192313741385208914e+01
2.198220858005307576e+01
2.209690416481424080e+01
2.215542089819572169e+01
2.190105972085502373e+01
2.200586866194973013e+01
2.211400561589999825e+01
2.215716591532872215e+01
2.194654434993100978e+01
2.200819814958045129e+01
2.203606775408767149e+01
2.203230950459911597e+01
2.200620231278729122e+01
2.190737309453620085e+01
2.204883811593410670e+01
2.196456210188668479e+01
2.190692414756369999e+01
2.196767095094347866e+01
2.202266134188925051e+01
2.203910550386073552e+01
2.204896261553436076e+01
2.209782815209363349e+01
2.195812867863325835e+01
2.207934608035039759e+01
2.202879125312119157e+01
2.212085450979253665e+01
2.212224868280267032e+01
2.227531097843143115e+01
2.204491400182881833e+01
2.222523543926398659e+01
2.220185631584761765e+01
2.215502707086463374e+01
2.215743686124778122e+01
2.234515404012421413e+01
2.217975000109129979e+01
2.208653772740569110e+01
2.199692734546011863e+01
2.219333138023213436e+01
2.217773029597307044e+01
2.200359176553557106e+01
2.195211193966065721e+01
2.199859873488864537e+01
2.193500371239957758e+01
2.186187268809084472e+01
2.190138406709052887e+01
2.203480748641315401e+01
2.185165289927756049e+01
2.193269344079157079e+01
2.185590631532475570e+01
2.175180250112828162e+01
2.174898866858211832e+01
2.167887627916437410e+01
2.153573005805610663e+01
2.106449118516129815e+01
2.010261971905267586e+01
1.373738988184821253e+01
4.393285433712209032e-01
3.369140198418002496e-01
3.607712176718035346e-01
2.929599975357121133e-01
2.869310209905985842e-01
1.630439069178157840e-02
1.945135826836535964e-01
1.292377650341054451e-01
5.315515964456696274e-02
1.452323732126141742e-01
1.425074400582370115e-01
2.738010161115337904e-01
2.138342821130478910e-01
2.592262697387667236e-01
2.298298005242395137e-01
4.075135860043438418e-01
2.399431932550564195e-01
2.542655017763193470e-01
2.727797350754290751e-01
3.041212703250370519e-01
4.680255493597439420e-01
3.344160380293839108e-01
2.057235023539787377e-01
3.006058506843963252e-01
2.924794958318732152e-01
3.316455932437103460e-01
3.513193618038366606e-01
2.121572290202849986e-01
2.249418511784803121e-01
2.005267818641434108e-01
2.027117447772982528e-01
2.915927269547482492e-01
3.207668971242193523e-01
4.392190120414532495e-01
4.674048718251511136e-01
2.363414026484189634e-01
3.249368751821575252e-01
2.757869414858975521e-01
2.083976647495662249e-01
3.623383348902871059e-01
2.082182477836667100e-01
1.271817517461510949e-01
2.675826100366570648e-01
2.534229297525182334e-01
1.941901466832343104e-01
2.454800373463420504e-01
1.923390368799625660e-01
1.970093394818428489e-01
1.876688354093983824e-01
2.420620126000257999e-01
2.279772747991050119e-01
1.926415375271112174e-01
2.318914774827237624e-01
1.610860976025029201e-01
1.479643859533280592e-01
2.219919894203857824e-01
2.656447247179086757e-01
2.354820418880000377e-01
2.438419219815830541e-01
2.381239415933732451e-01
2.240469913439536720e-01
2.159327729271062202e-01
2.655302376750881543e-01
2.600445688904423069e-01
3.542797418020096067e-01
3.063579142298175073e-01
1.665687322830443629e-01
2.837354975559271408e-01
4.178807313734095308e-01
2.697479523806458612e-01
4.279969559391803569e-01
3.483481601513765957e-01
3.695914732170131889e-01
2.943690376840609746e-01
2.998753384119629550e-01
2.996624451075593498e-01
3.202228814098466714e-01
3.362269964590793858e-01
2.549592001951202502e-01
3.300064665091317906e-01
2.969472211020635077e-01
2.490823336390546316e-01
2.659929392768375367e-01
2.798874384467032184e-01
3.082587834213585953e-01
2.791314396631730532e-01
3.826571549913191372e-01
2.976068363668356032e-01
2.502027288996543364e-01
1.173001649318141659e-01
2.249737093213112216e-01
8.857787470576805600e-02
4.232391698662100188e-01
2.345910252550664765e-01
2.386833301266907403e-01
1.915139615451313393e-01
1.699335589889815479e-01
2.289976456044675590e-01
1.198645937224290803e-01
7.583188686292463565e-02
1.953635377075336743e-01
9.732915483735915529e-02
1.876676217660014911e-01
1.418062575068779196e-01
2.247818525026568093e-01
2.452667394929239908e-01
0.000000000000000000e+00
1.979633644394676040e-01
1.061272613867568770e-01
9.392913246880396638e-02
1.107688410957432534e-01
6.418576348030657908e-02
2.171389323301020635e-01
1.353501795771605565e-01
1.302633949619149689e-01
1.750819360127203739e-01
2.926173455118051270e-01
1.996954360421702157e-01
2.371248095511392373e-01
1.958448485073847056e-01
1.960178938514097746e-01
1.468676567396238752e-01
1.794305219422553943e-01
3.483073008204800036e-01
3.555422344895020070e-01
2.170700580561031323e-01
2.335603384840542196e-01
2.324217385688541748e-01
2.312326713123349364e-01
2.397752047602106362e-01
1.462470803458170154e-01
2.769243277530412661e-01
2.299612785693337935e-01
2.652836657658266262e-01
1.822945184169343369e-01
1.934787492998694125e-01
2.127545439144260531e-01
2.873186789663251250e-01
1.493138564287863623e-01
1.865370116733168215e-01
3.306420111765942527e-01
2.811578198220572311e-01
1.739637657632413514e-01
2.981784624737418565e-01
3.454136712152566235e-01
5.918737257186501566e-02
1.118054949527350628e-01
1.984925130249287628e-01
2.552943680842945651e-01
2.116881557895962107e-01
2.512686113372457064e-01
1.269304263980336467e-01
2.249624831175434103e-01
2.195100883882746823e-01
2.911331606025473473e-01
3.745714571956516026e-01
1.637016005640186123e-01
4.075734590842206573e-01
3.313222583794201981e-01
1.701409908962752127e-01
1.491595214215534204e-01
2.890982849388003539e-01
1.793295872530149548e-01
3.093965742360426652e-01
1.689215825525091086e-01
3.041144941529833057e-01
2.758171814376354503e-01
3.827387725181490286e-01
2.428937629678320498e-01
2.330468661299600619e-01
4.179517295170442348e-01
3.110871796849465909e-01
3.010298168250398754e-01
3.266191873964354730e-01
2.591394942210372143e-01
2.675577303404648166e-01
3.351770936627151420e-01
2.134613901364712518e-01
3.654511282886095391e-01
3.129201859709122568e-01
2.082104602355823175e-01
2.355567820993500483e-01
3.533761841915294410e-01
3.599899346419794255e-01
2.483030733534521417e-01
3.784459130537789484e-01
2.388927847718406161e-01
1.008849281277125476e-01
1.738148921549802495e-01
1.566380940365953434e-01
2.188626095618949607e-01
2.487598078665047563e-01
1.003643761905407272e-01
2.497004827476208000e-01
1.911527003186973550e-01
2.185278462176993841e-01
1.239361655159133546e-01
8.813883915471754094e-02
1.495766102535498465e-01
5.071340998509854536e-02
1.063512797570906887e-01
5.038855806840525364e-02
1.129629063367396657e-01
3.240917747299241758e-01
2.557375502505222498e-01
2.317858904964231748e-01
1.539958909219847349e-01
1.255746854291436287e-01
2.921149982244190535e-01
2.338001342173030572e-01
2.091286827077646349e-01
2.763217537387825939e-01
1.777331403180373304e-01
1.500355697857213011e-01
2.332009988573299220e-01
1.462125926451010027e-01
2.655379240865020085e-01
2.646777542328665467e-01
1.828832366641831575e-01
1.284739787024131719e-01
3.805894098145319315e-01
4.156835308847268151e-01
2.966845684138954553e-01
2.183158631446595610e-01
1.891157007795685185e-01
1.954771145151860123e-01
2.593182032346623145e-01
1.570026927846022158e-01
2.078326125469612817e-01
3.572416388572437485e-01
2.701125511253138489e-01
1.742620186618017986e-01
3.700846170379443190e-01
1.986053818739390575e-01
